EESchema Schematic File Version 2
LIBS:power
LIBS:device
LIBS:switches
LIBS:relays
LIBS:motors
LIBS:transistors
LIBS:conn
LIBS:linear
LIBS:regul
LIBS:74xx
LIBS:cmos4000
LIBS:adc-dac
LIBS:memory
LIBS:xilinx
LIBS:microcontrollers
LIBS:dsp
LIBS:microchip
LIBS:analog_switches
LIBS:motorola
LIBS:texas
LIBS:intel
LIBS:audio
LIBS:interface
LIBS:digital-audio
LIBS:philips
LIBS:display
LIBS:cypress
LIBS:siliconi
LIBS:opto
LIBS:atmel
LIBS:contrib
LIBS:valves
LIBS:Schaltplan-cache
EELAYER 25 0
EELAYER END
$Descr A3 16535 11693
encoding utf-8
Sheet 1 1
Title "Schaltplan Bachelorarbeit"
Date ""
Rev ""
Comp ""
Comment1 ""
Comment2 ""
Comment3 ""
Comment4 ""
$EndDescr
$Comp
L MCP3424 U3
U 1 1 5AD499F0
P 9400 1550
F 0 "U3" H 9300 2000 50  0000 R CNN
F 1 "MCP3424 (1)" H 9300 1900 50  0000 R CNN
F 2 "" H 10300 1250 50  0001 C CNN
F 3 "" H 10300 1250 50  0001 C CNN
	1    9400 1550
	1    0    0    -1  
$EndComp
$Comp
L MCP3424 U4
U 1 1 5AD49A39
P 9650 3750
F 0 "U4" H 9550 4200 50  0000 R CNN
F 1 "MCP3424 (2)" H 9550 4100 50  0000 R CNN
F 2 "" H 10550 3450 50  0001 C CNN
F 3 "" H 10550 3450 50  0001 C CNN
	1    9650 3750
	1    0    0    -1  
$EndComp
$Comp
L MCP23017 U2
U 1 1 5AD49AA8
P 4150 5250
F 0 "U2" H 4050 6275 50  0000 R CNN
F 1 "MCP23017 (2)" H 4050 6200 50  0000 R CNN
F 2 "" H 4200 4300 50  0001 L CNN
F 3 "" H 4400 6250 50  0001 C CNN
	1    4150 5250
	1    0    0    -1  
$EndComp
$Comp
L MCP23017 U1
U 1 1 5AD49AF7
P 3400 2250
F 0 "U1" H 3300 3275 50  0000 R CNN
F 1 "MCP23017 (1)" H 3300 3200 50  0000 R CNN
F 2 "" H 3450 1300 50  0001 L CNN
F 3 "" H 3650 3250 50  0001 C CNN
	1    3400 2250
	1    0    0    -1  
$EndComp
$Comp
L GND #PWR01
U 1 1 5AD5B981
P 3400 3250
F 0 "#PWR01" H 3400 3000 50  0001 C CNN
F 1 "GND" H 3400 3100 50  0000 C CNN
F 2 "" H 3400 3250 50  0001 C CNN
F 3 "" H 3400 3250 50  0001 C CNN
	1    3400 3250
	1    0    0    -1  
$EndComp
$Comp
L GND #PWR02
U 1 1 5AD5BA13
P 5350 5200
F 0 "#PWR02" H 5350 4950 50  0001 C CNN
F 1 "GND" H 5350 5050 50  0000 C CNN
F 2 "" H 5350 5200 50  0001 C CNN
F 3 "" H 5350 5200 50  0001 C CNN
	1    5350 5200
	1    0    0    -1  
$EndComp
$Comp
L GND #PWR03
U 1 1 5AD5C36A
P 9400 2550
F 0 "#PWR03" H 9400 2300 50  0001 C CNN
F 1 "GND" H 9400 2400 50  0000 C CNN
F 2 "" H 9400 2550 50  0001 C CNN
F 3 "" H 9400 2550 50  0001 C CNN
	1    9400 2550
	1    0    0    -1  
$EndComp
$Comp
L GND #PWR04
U 1 1 5AD5C3C6
P 9650 4750
F 0 "#PWR04" H 9650 4500 50  0001 C CNN
F 1 "GND" H 9650 4600 50  0000 C CNN
F 2 "" H 9650 4750 50  0001 C CNN
F 3 "" H 9650 4750 50  0001 C CNN
	1    9650 4750
	1    0    0    -1  
$EndComp
Text GLabel 13050 1050 0    39   Input ~ 0
PT1000_1
Text GLabel 13050 1250 0    39   Input ~ 0
PT1000_2
Text GLabel 13050 1150 0    39   Input ~ 0
PT1000_1_GND
Text GLabel 13050 1350 0    39   Input ~ 0
PT1000_2_GND
Text GLabel 13050 1450 0    39   Input ~ 0
PT1000_3
Text GLabel 13050 1550 0    39   Input ~ 0
PT1000_3_GND
Text GLabel 13050 1650 0    39   Input ~ 0
PT1000_4
Text GLabel 13050 1750 0    39   Input ~ 0
PT1000_4_GND
Text GLabel 13050 2150 0    39   Input ~ 0
PT1000_5
Text GLabel 13050 2250 0    39   Input ~ 0
PT1000_5_GND
Text GLabel 13050 2350 0    39   Input ~ 0
PT1000_6
Text GLabel 13050 2450 0    39   Input ~ 0
PT1000_6_GND
Text GLabel 13050 2550 0    39   Input ~ 0
PT1000_7
Text GLabel 13050 2650 0    39   Input ~ 0
PT1000_7_GND
Text GLabel 13050 2750 0    39   Input ~ 0
PT1000_8
Text GLabel 13050 2850 0    39   Input ~ 0
PT1000_8_GND
Text GLabel 10000 1450 2    39   Input ~ 0
RPi_Pin5_SCL1
Text GLabel 10000 1550 2    39   Input ~ 0
RPi_Pin3_SDA1
Text GLabel 3900 2550 2    39   Input ~ 0
RPi_Pin5_SCL1
Text GLabel 10250 3650 2    39   Input ~ 0
RPi_Pin5_SCL1
Text GLabel 4650 5550 2    39   Input ~ 0
RPi_Pin5_SCL1
Text GLabel 10250 3750 2    39   Input ~ 0
RPi_Pin3_SDA1
Text GLabel 3900 2650 2    39   Input ~ 0
RPi_Pin3_SDA1
Text GLabel 4650 5650 2    39   Input ~ 0
RPi_Pin3_SDA1
Text GLabel 13050 3500 0    39   Input ~ 0
Analog_in_Feuchte
Text GLabel 13050 3400 0    39   Input ~ 0
Analog_in_Temperature
Text GLabel 13050 3300 0    39   Input ~ 0
Analog_in_CO2
$Comp
L R R33
U 1 1 5AD60D45
P 10200 7550
F 0 "R33" V 10280 7550 50  0000 C CNN
F 1 "27k" V 10200 7550 50  0000 C CNN
F 2 "Resistors_THT:R_Axial_DIN0207_L6.3mm_D2.5mm_P10.16mm_Horizontal" V 10130 7550 50  0001 C CNN
F 3 "" H 10200 7550 50  0001 C CNN
	1    10200 7550
	0    1    1    0   
$EndComp
$Comp
L R R49
U 1 1 5AD60ED7
P 10600 7550
F 0 "R49" V 10680 7550 50  0000 C CNN
F 1 "6k8" V 10600 7550 50  0000 C CNN
F 2 "Resistors_THT:R_Axial_DIN0207_L6.3mm_D2.5mm_P10.16mm_Horizontal" V 10530 7550 50  0001 C CNN
F 3 "" H 10600 7550 50  0001 C CNN
	1    10600 7550
	0    -1   -1   0   
$EndComp
$Comp
L GND #PWR05
U 1 1 5AD60FD2
P 10850 7550
F 0 "#PWR05" H 10850 7300 50  0001 C CNN
F 1 "GND" H 10850 7400 50  0000 C CNN
F 2 "" H 10850 7550 50  0001 C CNN
F 3 "" H 10850 7550 50  0001 C CNN
	1    10850 7550
	1    0    0    -1  
$EndComp
Text GLabel 13050 4250 0    39   Input ~ 0
24VDC_Boiler
Text GLabel 13050 4350 0    39   Input ~ 0
24VDC_Heizpumpe
Text GLabel 13050 4450 0    39   Input ~ 0
24VDC_Kältemaschine
Text GLabel 13050 4550 0    39   Input ~ 0
24VDC_Kühlpumpe
Text GLabel 13050 4650 0    39   Input ~ 0
24VDC_Ventilator_Zuluft
Text GLabel 13050 4750 0    39   Input ~ 0
24VDC_Ventilator_Abluft
Text GLabel 13050 5300 0    39   Input ~ 0
24VDC_CPU-Fan+Heizregister
Text GLabel 13050 5400 0    39   Input ~ 0
24VDC_Kühl-CPU-Fan
Text GLabel 13050 5500 0    39   Input ~ 0
24VDC_Jalousie_UP
Text GLabel 13050 5600 0    39   Input ~ 0
24VDC_Jalousie_DOWN
Text GLabel 13050 5700 0    39   Input ~ 0
24VDC_Spot1
Text GLabel 13050 5800 0    39   Input ~ 0
24VDC_Spot2
Text GLabel 10400 7750 0    39   Input ~ 0
Belimo_for_ADC
$Comp
L R R2
U 1 1 5AD70225
P 14950 1400
F 0 "R2" V 15030 1400 50  0000 C CNN
F 1 "33k" V 14950 1400 50  0000 C CNN
F 2 "Resistors_THT:R_Axial_DIN0207_L6.3mm_D2.5mm_P10.16mm_Horizontal" V 14880 1400 50  0001 C CNN
F 3 "" H 14950 1400 50  0001 C CNN
	1    14950 1400
	0    1    1    0   
$EndComp
$Comp
L R R18
U 1 1 5AD7022B
P 15350 1400
F 0 "R18" V 15430 1400 50  0000 C CNN
F 1 "5k6" V 15350 1400 50  0000 C CNN
F 2 "Resistors_THT:R_Axial_DIN0207_L6.3mm_D2.5mm_P10.16mm_Horizontal" V 15280 1400 50  0001 C CNN
F 3 "" H 15350 1400 50  0001 C CNN
	1    15350 1400
	0    -1   -1   0   
$EndComp
$Comp
L GND #PWR06
U 1 1 5AD70231
P 15600 1400
F 0 "#PWR06" H 15600 1150 50  0001 C CNN
F 1 "GND" H 15600 1250 50  0000 C CNN
F 2 "" H 15600 1400 50  0001 C CNN
F 3 "" H 15600 1400 50  0001 C CNN
	1    15600 1400
	1    0    0    -1  
$EndComp
Text GLabel 15150 1600 0    39   Input ~ 0
Heizpumpe_for_RPI
Text GLabel 14800 1400 0    39   Input ~ 0
24VDC_Heizpumpe
$Comp
L R R3
U 1 1 5AD704D7
P 14950 1850
F 0 "R3" V 15030 1850 50  0000 C CNN
F 1 "33k" V 14950 1850 50  0000 C CNN
F 2 "Resistors_THT:R_Axial_DIN0207_L6.3mm_D2.5mm_P10.16mm_Horizontal" V 14880 1850 50  0001 C CNN
F 3 "" H 14950 1850 50  0001 C CNN
	1    14950 1850
	0    1    1    0   
$EndComp
$Comp
L R R19
U 1 1 5AD704DD
P 15350 1850
F 0 "R19" V 15430 1850 50  0000 C CNN
F 1 "5k6" V 15350 1850 50  0000 C CNN
F 2 "Resistors_THT:R_Axial_DIN0207_L6.3mm_D2.5mm_P10.16mm_Horizontal" V 15280 1850 50  0001 C CNN
F 3 "" H 15350 1850 50  0001 C CNN
	1    15350 1850
	0    -1   -1   0   
$EndComp
$Comp
L GND #PWR07
U 1 1 5AD704E3
P 15600 1850
F 0 "#PWR07" H 15600 1600 50  0001 C CNN
F 1 "GND" H 15600 1700 50  0000 C CNN
F 2 "" H 15600 1850 50  0001 C CNN
F 3 "" H 15600 1850 50  0001 C CNN
	1    15600 1850
	1    0    0    -1  
$EndComp
Text GLabel 15150 2050 0    39   Input ~ 0
Kältepumpe_for_RPI
Text GLabel 14800 1850 0    39   Input ~ 0
24VDC_Kältemaschine
$Comp
L R R4
U 1 1 5AD70E2B
P 14950 2250
F 0 "R4" V 15030 2250 50  0000 C CNN
F 1 "33k" V 14950 2250 50  0000 C CNN
F 2 "Resistors_THT:R_Axial_DIN0207_L6.3mm_D2.5mm_P10.16mm_Horizontal" V 14880 2250 50  0001 C CNN
F 3 "" H 14950 2250 50  0001 C CNN
	1    14950 2250
	0    1    1    0   
$EndComp
$Comp
L R R20
U 1 1 5AD70E31
P 15350 2250
F 0 "R20" V 15430 2250 50  0000 C CNN
F 1 "5k6" V 15350 2250 50  0000 C CNN
F 2 "Resistors_THT:R_Axial_DIN0207_L6.3mm_D2.5mm_P10.16mm_Horizontal" V 15280 2250 50  0001 C CNN
F 3 "" H 15350 2250 50  0001 C CNN
	1    15350 2250
	0    -1   -1   0   
$EndComp
$Comp
L GND #PWR08
U 1 1 5AD70E37
P 15600 2250
F 0 "#PWR08" H 15600 2000 50  0001 C CNN
F 1 "GND" H 15600 2100 50  0000 C CNN
F 2 "" H 15600 2250 50  0001 C CNN
F 3 "" H 15600 2250 50  0001 C CNN
	1    15600 2250
	1    0    0    -1  
$EndComp
Text GLabel 15150 2450 0    39   Input ~ 0
Kühlpumpe_for_RPI
Text GLabel 14800 2250 0    39   Input ~ 0
24VDC_Kühlpumpe
$Comp
L R R5
U 1 1 5AD710D7
P 14950 2700
F 0 "R5" V 15030 2700 50  0000 C CNN
F 1 "33k" V 14950 2700 50  0000 C CNN
F 2 "Resistors_THT:R_Axial_DIN0207_L6.3mm_D2.5mm_P10.16mm_Horizontal" V 14880 2700 50  0001 C CNN
F 3 "" H 14950 2700 50  0001 C CNN
	1    14950 2700
	0    1    1    0   
$EndComp
$Comp
L R R21
U 1 1 5AD710DD
P 15350 2700
F 0 "R21" V 15430 2700 50  0000 C CNN
F 1 "5k6" V 15350 2700 50  0000 C CNN
F 2 "Resistors_THT:R_Axial_DIN0207_L6.3mm_D2.5mm_P10.16mm_Horizontal" V 15280 2700 50  0001 C CNN
F 3 "" H 15350 2700 50  0001 C CNN
	1    15350 2700
	0    -1   -1   0   
$EndComp
$Comp
L GND #PWR09
U 1 1 5AD710E3
P 15600 2700
F 0 "#PWR09" H 15600 2450 50  0001 C CNN
F 1 "GND" H 15600 2550 50  0000 C CNN
F 2 "" H 15600 2700 50  0001 C CNN
F 3 "" H 15600 2700 50  0001 C CNN
	1    15600 2700
	1    0    0    -1  
$EndComp
Text GLabel 15150 2900 0    39   Input ~ 0
Ventilator_Zuluft_for_RPI
Text GLabel 14800 2700 0    39   Input ~ 0
24VDC_Ventilator_Zuluft
$Comp
L R R6
U 1 1 5AD71246
P 14950 3100
F 0 "R6" V 15030 3100 50  0000 C CNN
F 1 "33k" V 14950 3100 50  0000 C CNN
F 2 "Resistors_THT:R_Axial_DIN0207_L6.3mm_D2.5mm_P10.16mm_Horizontal" V 14880 3100 50  0001 C CNN
F 3 "" H 14950 3100 50  0001 C CNN
	1    14950 3100
	0    1    1    0   
$EndComp
$Comp
L R R22
U 1 1 5AD7124C
P 15350 3100
F 0 "R22" V 15430 3100 50  0000 C CNN
F 1 "5k6" V 15350 3100 50  0000 C CNN
F 2 "Resistors_THT:R_Axial_DIN0207_L6.3mm_D2.5mm_P10.16mm_Horizontal" V 15280 3100 50  0001 C CNN
F 3 "" H 15350 3100 50  0001 C CNN
	1    15350 3100
	0    -1   -1   0   
$EndComp
$Comp
L GND #PWR010
U 1 1 5AD71252
P 15600 3100
F 0 "#PWR010" H 15600 2850 50  0001 C CNN
F 1 "GND" H 15600 2950 50  0000 C CNN
F 2 "" H 15600 3100 50  0001 C CNN
F 3 "" H 15600 3100 50  0001 C CNN
	1    15600 3100
	1    0    0    -1  
$EndComp
Text GLabel 15150 3300 0    39   Input ~ 0
Ventilator_Abluft_for_RPI
Text GLabel 14800 3100 0    39   Input ~ 0
24VDC_Ventilator_Abluft
$Comp
L R R9
U 1 1 5AD71387
P 14950 4300
F 0 "R9" V 15030 4300 50  0000 C CNN
F 1 "33k" V 14950 4300 50  0000 C CNN
F 2 "Resistors_THT:R_Axial_DIN0207_L6.3mm_D2.5mm_P10.16mm_Horizontal" V 14880 4300 50  0001 C CNN
F 3 "" H 14950 4300 50  0001 C CNN
	1    14950 4300
	0    1    1    0   
$EndComp
$Comp
L R R25
U 1 1 5AD7138D
P 15350 4300
F 0 "R25" V 15430 4300 50  0000 C CNN
F 1 "5k6" V 15350 4300 50  0000 C CNN
F 2 "Resistors_THT:R_Axial_DIN0207_L6.3mm_D2.5mm_P10.16mm_Horizontal" V 15280 4300 50  0001 C CNN
F 3 "" H 15350 4300 50  0001 C CNN
	1    15350 4300
	0    -1   -1   0   
$EndComp
$Comp
L GND #PWR011
U 1 1 5AD71393
P 15600 4300
F 0 "#PWR011" H 15600 4050 50  0001 C CNN
F 1 "GND" H 15600 4150 50  0000 C CNN
F 2 "" H 15600 4300 50  0001 C CNN
F 3 "" H 15600 4300 50  0001 C CNN
	1    15600 4300
	1    0    0    -1  
$EndComp
Text GLabel 15150 4500 0    39   Input ~ 0
CPU-Fan+Heizregister_for_RPI
Text GLabel 14800 4300 0    39   Input ~ 0
24VDC_CPU-Fan+Heizregister
$Comp
L R R10
U 1 1 5AD714AB
P 14950 4700
F 0 "R10" V 15030 4700 50  0000 C CNN
F 1 "33k" V 14950 4700 50  0000 C CNN
F 2 "Resistors_THT:R_Axial_DIN0207_L6.3mm_D2.5mm_P10.16mm_Horizontal" V 14880 4700 50  0001 C CNN
F 3 "" H 14950 4700 50  0001 C CNN
	1    14950 4700
	0    1    1    0   
$EndComp
$Comp
L R R26
U 1 1 5AD714B1
P 15350 4700
F 0 "R26" V 15430 4700 50  0000 C CNN
F 1 "5k6" V 15350 4700 50  0000 C CNN
F 2 "Resistors_THT:R_Axial_DIN0207_L6.3mm_D2.5mm_P10.16mm_Horizontal" V 15280 4700 50  0001 C CNN
F 3 "" H 15350 4700 50  0001 C CNN
	1    15350 4700
	0    -1   -1   0   
$EndComp
$Comp
L GND #PWR012
U 1 1 5AD714B7
P 15600 4700
F 0 "#PWR012" H 15600 4450 50  0001 C CNN
F 1 "GND" H 15600 4550 50  0000 C CNN
F 2 "" H 15600 4700 50  0001 C CNN
F 3 "" H 15600 4700 50  0001 C CNN
	1    15600 4700
	1    0    0    -1  
$EndComp
Text GLabel 15150 4900 0    39   Input ~ 0
Kühl-CPU-Fan_for_RPI
Text GLabel 14800 4700 0    39   Input ~ 0
24VDC_Kühl-CPU-Fan
$Comp
L R R11
U 1 1 5AD715DF
P 14950 5100
F 0 "R11" V 15030 5100 50  0000 C CNN
F 1 "33k" V 14950 5100 50  0000 C CNN
F 2 "Resistors_THT:R_Axial_DIN0207_L6.3mm_D2.5mm_P10.16mm_Horizontal" V 14880 5100 50  0001 C CNN
F 3 "" H 14950 5100 50  0001 C CNN
	1    14950 5100
	0    1    1    0   
$EndComp
$Comp
L R R27
U 1 1 5AD715E5
P 15350 5100
F 0 "R27" V 15430 5100 50  0000 C CNN
F 1 "5k6" V 15350 5100 50  0000 C CNN
F 2 "Resistors_THT:R_Axial_DIN0207_L6.3mm_D2.5mm_P10.16mm_Horizontal" V 15280 5100 50  0001 C CNN
F 3 "" H 15350 5100 50  0001 C CNN
	1    15350 5100
	0    -1   -1   0   
$EndComp
$Comp
L GND #PWR013
U 1 1 5AD715EB
P 15600 5100
F 0 "#PWR013" H 15600 4850 50  0001 C CNN
F 1 "GND" H 15600 4950 50  0000 C CNN
F 2 "" H 15600 5100 50  0001 C CNN
F 3 "" H 15600 5100 50  0001 C CNN
	1    15600 5100
	1    0    0    -1  
$EndComp
Text GLabel 15150 5300 0    39   Input ~ 0
Jalousie_UP_for_RPI
Text GLabel 14800 5100 0    39   Input ~ 0
24VDC_Jalousie_UP
$Comp
L R R12
U 1 1 5AD71733
P 14950 5500
F 0 "R12" V 15030 5500 50  0000 C CNN
F 1 "33k" V 14950 5500 50  0000 C CNN
F 2 "Resistors_THT:R_Axial_DIN0207_L6.3mm_D2.5mm_P10.16mm_Horizontal" V 14880 5500 50  0001 C CNN
F 3 "" H 14950 5500 50  0001 C CNN
	1    14950 5500
	0    1    1    0   
$EndComp
$Comp
L R R28
U 1 1 5AD71739
P 15350 5500
F 0 "R28" V 15430 5500 50  0000 C CNN
F 1 "5k6" V 15350 5500 50  0000 C CNN
F 2 "Resistors_THT:R_Axial_DIN0207_L6.3mm_D2.5mm_P10.16mm_Horizontal" V 15280 5500 50  0001 C CNN
F 3 "" H 15350 5500 50  0001 C CNN
	1    15350 5500
	0    -1   -1   0   
$EndComp
$Comp
L GND #PWR014
U 1 1 5AD7173F
P 15600 5500
F 0 "#PWR014" H 15600 5250 50  0001 C CNN
F 1 "GND" H 15600 5350 50  0000 C CNN
F 2 "" H 15600 5500 50  0001 C CNN
F 3 "" H 15600 5500 50  0001 C CNN
	1    15600 5500
	1    0    0    -1  
$EndComp
Text GLabel 15150 5700 0    39   Input ~ 0
Jalousie_DOWN_for_RPI
Text GLabel 14800 5500 0    39   Input ~ 0
24VDC_Jalousie_DOWN
$Comp
L R R13
U 1 1 5AD71915
P 14950 5850
F 0 "R13" V 15030 5850 50  0000 C CNN
F 1 "33k" V 14950 5850 50  0000 C CNN
F 2 "Resistors_THT:R_Axial_DIN0207_L6.3mm_D2.5mm_P10.16mm_Horizontal" V 14880 5850 50  0001 C CNN
F 3 "" H 14950 5850 50  0001 C CNN
	1    14950 5850
	0    1    1    0   
$EndComp
$Comp
L R R29
U 1 1 5AD7191B
P 15350 5850
F 0 "R29" V 15430 5850 50  0000 C CNN
F 1 "5k6" V 15350 5850 50  0000 C CNN
F 2 "Resistors_THT:R_Axial_DIN0207_L6.3mm_D2.5mm_P10.16mm_Horizontal" V 15280 5850 50  0001 C CNN
F 3 "" H 15350 5850 50  0001 C CNN
	1    15350 5850
	0    -1   -1   0   
$EndComp
$Comp
L GND #PWR015
U 1 1 5AD71921
P 15600 5850
F 0 "#PWR015" H 15600 5600 50  0001 C CNN
F 1 "GND" H 15600 5700 50  0000 C CNN
F 2 "" H 15600 5850 50  0001 C CNN
F 3 "" H 15600 5850 50  0001 C CNN
	1    15600 5850
	1    0    0    -1  
$EndComp
Text GLabel 15150 6050 0    39   Input ~ 0
Spot1_for_RPI
Text GLabel 14800 5850 0    39   Input ~ 0
24VDC_Spot1
$Comp
L R R14
U 1 1 5AD71C15
P 14950 6250
F 0 "R14" V 15030 6250 50  0000 C CNN
F 1 "33k" V 14950 6250 50  0000 C CNN
F 2 "Resistors_THT:R_Axial_DIN0207_L6.3mm_D2.5mm_P10.16mm_Horizontal" V 14880 6250 50  0001 C CNN
F 3 "" H 14950 6250 50  0001 C CNN
	1    14950 6250
	0    1    1    0   
$EndComp
$Comp
L R R30
U 1 1 5AD71C1B
P 15350 6250
F 0 "R30" V 15430 6250 50  0000 C CNN
F 1 "5k6" V 15350 6250 50  0000 C CNN
F 2 "Resistors_THT:R_Axial_DIN0207_L6.3mm_D2.5mm_P10.16mm_Horizontal" V 15280 6250 50  0001 C CNN
F 3 "" H 15350 6250 50  0001 C CNN
	1    15350 6250
	0    -1   -1   0   
$EndComp
$Comp
L GND #PWR016
U 1 1 5AD71C21
P 15600 6250
F 0 "#PWR016" H 15600 6000 50  0001 C CNN
F 1 "GND" H 15600 6100 50  0000 C CNN
F 2 "" H 15600 6250 50  0001 C CNN
F 3 "" H 15600 6250 50  0001 C CNN
	1    15600 6250
	1    0    0    -1  
$EndComp
Text GLabel 15150 6450 0    39   Input ~ 0
Spot2_for_RPI
Text GLabel 14800 6250 0    39   Input ~ 0
24VDC_Spot2
$Comp
L R R34
U 1 1 5AD736CA
P 10200 8000
F 0 "R34" V 10280 8000 50  0000 C CNN
F 1 "27k" V 10200 8000 50  0000 C CNN
F 2 "Resistors_THT:R_Axial_DIN0207_L6.3mm_D2.5mm_P10.16mm_Horizontal" V 10130 8000 50  0001 C CNN
F 3 "" H 10200 8000 50  0001 C CNN
	1    10200 8000
	0    1    1    0   
$EndComp
$Comp
L R R50
U 1 1 5AD736D0
P 10600 8000
F 0 "R50" V 10680 8000 50  0000 C CNN
F 1 "6k8" V 10600 8000 50  0000 C CNN
F 2 "Resistors_THT:R_Axial_DIN0207_L6.3mm_D2.5mm_P10.16mm_Horizontal" V 10530 8000 50  0001 C CNN
F 3 "" H 10600 8000 50  0001 C CNN
	1    10600 8000
	0    -1   -1   0   
$EndComp
$Comp
L GND #PWR017
U 1 1 5AD736D6
P 10850 8000
F 0 "#PWR017" H 10850 7750 50  0001 C CNN
F 1 "GND" H 10850 7850 50  0000 C CNN
F 2 "" H 10850 8000 50  0001 C CNN
F 3 "" H 10850 8000 50  0001 C CNN
	1    10850 8000
	1    0    0    -1  
$EndComp
Text GLabel 10400 8200 0    39   Input ~ 0
Mischventil_for_ADC
$Comp
L R R35
U 1 1 5AD7376D
P 10200 8450
F 0 "R35" V 10280 8450 50  0000 C CNN
F 1 "27k" V 10200 8450 50  0000 C CNN
F 2 "Resistors_THT:R_Axial_DIN0207_L6.3mm_D2.5mm_P10.16mm_Horizontal" V 10130 8450 50  0001 C CNN
F 3 "" H 10200 8450 50  0001 C CNN
	1    10200 8450
	0    1    1    0   
$EndComp
$Comp
L R R51
U 1 1 5AD73773
P 10600 8450
F 0 "R51" V 10680 8450 50  0000 C CNN
F 1 "6k8" V 10600 8450 50  0000 C CNN
F 2 "Resistors_THT:R_Axial_DIN0207_L6.3mm_D2.5mm_P10.16mm_Horizontal" V 10530 8450 50  0001 C CNN
F 3 "" H 10600 8450 50  0001 C CNN
	1    10600 8450
	0    -1   -1   0   
$EndComp
$Comp
L GND #PWR018
U 1 1 5AD73779
P 10850 8450
F 0 "#PWR018" H 10850 8200 50  0001 C CNN
F 1 "GND" H 10850 8300 50  0000 C CNN
F 2 "" H 10850 8450 50  0001 C CNN
F 3 "" H 10850 8450 50  0001 C CNN
	1    10850 8450
	1    0    0    -1  
$EndComp
Text GLabel 10050 8450 0    39   Input ~ 0
0-10V_AnalogOut_3
Text GLabel 10400 8650 0    39   Input ~ 0
AnalogOut_3_for_ADC
$Comp
L R R36
U 1 1 5AD73962
P 10200 8900
F 0 "R36" V 10280 8900 50  0000 C CNN
F 1 "27k" V 10200 8900 50  0000 C CNN
F 2 "Resistors_THT:R_Axial_DIN0207_L6.3mm_D2.5mm_P10.16mm_Horizontal" V 10130 8900 50  0001 C CNN
F 3 "" H 10200 8900 50  0001 C CNN
	1    10200 8900
	0    1    1    0   
$EndComp
$Comp
L R R52
U 1 1 5AD73968
P 10600 8900
F 0 "R52" V 10680 8900 50  0000 C CNN
F 1 "6k8" V 10600 8900 50  0000 C CNN
F 2 "Resistors_THT:R_Axial_DIN0207_L6.3mm_D2.5mm_P10.16mm_Horizontal" V 10530 8900 50  0001 C CNN
F 3 "" H 10600 8900 50  0001 C CNN
	1    10600 8900
	0    -1   -1   0   
$EndComp
$Comp
L GND #PWR019
U 1 1 5AD7396E
P 10850 8900
F 0 "#PWR019" H 10850 8650 50  0001 C CNN
F 1 "GND" H 10850 8750 50  0000 C CNN
F 2 "" H 10850 8900 50  0001 C CNN
F 3 "" H 10850 8900 50  0001 C CNN
	1    10850 8900
	1    0    0    -1  
$EndComp
Text GLabel 10050 8900 0    39   Input ~ 0
0-10V_AnalogOut_4
Text GLabel 10400 9100 0    39   Input ~ 0
AnalogOut_4_for_ADC
$Comp
L R R37
U 1 1 5AD73A6B
P 10200 9350
F 0 "R37" V 10280 9350 50  0000 C CNN
F 1 "27k" V 10200 9350 50  0000 C CNN
F 2 "Resistors_THT:R_Axial_DIN0207_L6.3mm_D2.5mm_P10.16mm_Horizontal" V 10130 9350 50  0001 C CNN
F 3 "" H 10200 9350 50  0001 C CNN
	1    10200 9350
	0    1    1    0   
$EndComp
$Comp
L R R53
U 1 1 5AD73A71
P 10600 9350
F 0 "R53" V 10680 9350 50  0000 C CNN
F 1 "6k8" V 10600 9350 50  0000 C CNN
F 2 "Resistors_THT:R_Axial_DIN0207_L6.3mm_D2.5mm_P10.16mm_Horizontal" V 10530 9350 50  0001 C CNN
F 3 "" H 10600 9350 50  0001 C CNN
	1    10600 9350
	0    -1   -1   0   
$EndComp
$Comp
L GND #PWR020
U 1 1 5AD73A77
P 10850 9350
F 0 "#PWR020" H 10850 9100 50  0001 C CNN
F 1 "GND" H 10850 9200 50  0000 C CNN
F 2 "" H 10850 9350 50  0001 C CNN
F 3 "" H 10850 9350 50  0001 C CNN
	1    10850 9350
	1    0    0    -1  
$EndComp
Text GLabel 10050 9350 0    39   Input ~ 0
0-10V_AnalogOut_5
Text GLabel 10400 9550 0    39   Input ~ 0
AnalogOut_5_for_ADC
$Comp
L R R38
U 1 1 5AD73B3E
P 10200 9800
F 0 "R38" V 10280 9800 50  0000 C CNN
F 1 "27k" V 10200 9800 50  0000 C CNN
F 2 "Resistors_THT:R_Axial_DIN0207_L6.3mm_D2.5mm_P10.16mm_Horizontal" V 10130 9800 50  0001 C CNN
F 3 "" H 10200 9800 50  0001 C CNN
	1    10200 9800
	0    1    1    0   
$EndComp
$Comp
L R R54
U 1 1 5AD73B44
P 10600 9800
F 0 "R54" V 10680 9800 50  0000 C CNN
F 1 "6k8" V 10600 9800 50  0000 C CNN
F 2 "Resistors_THT:R_Axial_DIN0207_L6.3mm_D2.5mm_P10.16mm_Horizontal" V 10530 9800 50  0001 C CNN
F 3 "" H 10600 9800 50  0001 C CNN
	1    10600 9800
	0    -1   -1   0   
$EndComp
$Comp
L GND #PWR021
U 1 1 5AD73B4A
P 10850 9800
F 0 "#PWR021" H 10850 9550 50  0001 C CNN
F 1 "GND" H 10850 9650 50  0000 C CNN
F 2 "" H 10850 9800 50  0001 C CNN
F 3 "" H 10850 9800 50  0001 C CNN
	1    10850 9800
	1    0    0    -1  
$EndComp
Text GLabel 10050 9800 0    39   Input ~ 0
0-10V_AnalogOut_6
Text GLabel 10400 10000 0    39   Input ~ 0
AnalogOut_6_for_ADC
$Comp
L R R39
U 1 1 5AD73C3F
P 10200 10250
F 0 "R39" V 10280 10250 50  0000 C CNN
F 1 "27k" V 10200 10250 50  0000 C CNN
F 2 "Resistors_THT:R_Axial_DIN0207_L6.3mm_D2.5mm_P10.16mm_Horizontal" V 10130 10250 50  0001 C CNN
F 3 "" H 10200 10250 50  0001 C CNN
	1    10200 10250
	0    1    1    0   
$EndComp
$Comp
L R R55
U 1 1 5AD73C45
P 10600 10250
F 0 "R55" V 10680 10250 50  0000 C CNN
F 1 "6k8" V 10600 10250 50  0000 C CNN
F 2 "Resistors_THT:R_Axial_DIN0207_L6.3mm_D2.5mm_P10.16mm_Horizontal" V 10530 10250 50  0001 C CNN
F 3 "" H 10600 10250 50  0001 C CNN
	1    10600 10250
	0    -1   -1   0   
$EndComp
$Comp
L GND #PWR022
U 1 1 5AD73C4B
P 10850 10250
F 0 "#PWR022" H 10850 10000 50  0001 C CNN
F 1 "GND" H 10850 10100 50  0000 C CNN
F 2 "" H 10850 10250 50  0001 C CNN
F 3 "" H 10850 10250 50  0001 C CNN
	1    10850 10250
	1    0    0    -1  
$EndComp
Text GLabel 10050 10250 0    39   Input ~ 0
0-10V_AnalogOut_7
Text GLabel 10400 10450 0    39   Input ~ 0
AnalogOut_7_for_ADC
$Comp
L R R40
U 1 1 5AD73CD6
P 10200 10700
F 0 "R40" V 10280 10700 50  0000 C CNN
F 1 "27k" V 10200 10700 50  0000 C CNN
F 2 "Resistors_THT:R_Axial_DIN0207_L6.3mm_D2.5mm_P10.16mm_Horizontal" V 10130 10700 50  0001 C CNN
F 3 "" H 10200 10700 50  0001 C CNN
	1    10200 10700
	0    1    1    0   
$EndComp
$Comp
L R R56
U 1 1 5AD73CDC
P 10600 10700
F 0 "R56" V 10680 10700 50  0000 C CNN
F 1 "6k8" V 10600 10700 50  0000 C CNN
F 2 "Resistors_THT:R_Axial_DIN0207_L6.3mm_D2.5mm_P10.16mm_Horizontal" V 10530 10700 50  0001 C CNN
F 3 "" H 10600 10700 50  0001 C CNN
	1    10600 10700
	0    -1   -1   0   
$EndComp
$Comp
L GND #PWR023
U 1 1 5AD73CE2
P 10850 10700
F 0 "#PWR023" H 10850 10450 50  0001 C CNN
F 1 "GND" H 10850 10550 50  0000 C CNN
F 2 "" H 10850 10700 50  0001 C CNN
F 3 "" H 10850 10700 50  0001 C CNN
	1    10850 10700
	1    0    0    -1  
$EndComp
Text GLabel 10050 10700 0    39   Input ~ 0
0-10V_AnalogOut_8
Text GLabel 10400 10900 0    39   Input ~ 0
AnalogOut_8_for_ADC
$Comp
L R R1
U 1 1 5AD74CDD
P 14950 950
F 0 "R1" V 15030 950 50  0000 C CNN
F 1 "33k" V 14950 950 50  0000 C CNN
F 2 "Resistors_THT:R_Axial_DIN0207_L6.3mm_D2.5mm_P10.16mm_Horizontal" V 14880 950 50  0001 C CNN
F 3 "" H 14950 950 50  0001 C CNN
	1    14950 950 
	0    1    1    0   
$EndComp
$Comp
L R R17
U 1 1 5AD74CE3
P 15350 950
F 0 "R17" V 15430 950 50  0000 C CNN
F 1 "5k6" V 15350 950 50  0000 C CNN
F 2 "Resistors_THT:R_Axial_DIN0207_L6.3mm_D2.5mm_P10.16mm_Horizontal" V 15280 950 50  0001 C CNN
F 3 "" H 15350 950 50  0001 C CNN
	1    15350 950 
	0    -1   -1   0   
$EndComp
$Comp
L GND #PWR024
U 1 1 5AD74CE9
P 15600 950
F 0 "#PWR024" H 15600 700 50  0001 C CNN
F 1 "GND" H 15600 800 50  0000 C CNN
F 2 "" H 15600 950 50  0001 C CNN
F 3 "" H 15600 950 50  0001 C CNN
	1    15600 950 
	1    0    0    -1  
$EndComp
Text GLabel 14800 950  0    39   Input ~ 0
24VDC_Boiler
Text GLabel 15150 1150 0    39   Input ~ 0
Boiler_for_RPI
Text GLabel 13050 6350 0    39   Input ~ 0
0-10V_Belimo
Text GLabel 13050 6450 0    39   Input ~ 0
0-10V_Mischventil
Text GLabel 10050 7550 0    39   Input ~ 0
0-10V_Belimo
Text GLabel 10050 8000 0    39   Input ~ 0
0-10V_Mischventil
Text GLabel 8800 1350 0    39   Input ~ 0
Belimo_for_ADC
Text GLabel 8800 1650 0    39   Input ~ 0
Mischventil_for_ADC
Text GLabel 2900 1450 0    39   Input ~ 0
Boiler_for_RPI
Text GLabel 2900 1550 0    39   Input ~ 0
Heizpumpe_for_RPI
Text GLabel 2900 1650 0    39   Input ~ 0
Kältepumpe_for_RPI
Text GLabel 2900 1750 0    39   Input ~ 0
Kühlpumpe_for_RPI
Text GLabel 2900 1850 0    39   Input ~ 0
Ventilator_Zuluft_for_RPI
Text GLabel 2900 1950 0    39   Input ~ 0
Ventilator_Abluft_for_RPI
Text GLabel 2900 2350 0    39   Input ~ 0
CPU-Fan+Heizregister_for_RPI
Text GLabel 2900 2450 0    39   Input ~ 0
Kühl-CPU-Fan_for_RPI
Text GLabel 2900 2550 0    39   Input ~ 0
Jalousie_UP_for_RPI
Text GLabel 2900 2650 0    39   Input ~ 0
Jalousie_DOWN_for_RPI
Text GLabel 2900 2750 0    39   Input ~ 0
Spot1_for_RPI
Text GLabel 2900 2850 0    39   Input ~ 0
Spot2_for_RPI
Text GLabel 8800 1950 0    39   Input ~ 0
AnalogOut_3_for_ADC
Text GLabel 8800 2250 0    39   Input ~ 0
AnalogOut_4_for_ADC
Text GLabel 9050 3550 0    39   Input ~ 0
AnalogOut_5_for_ADC
Text GLabel 9050 3850 0    39   Input ~ 0
AnalogOut_6_for_ADC
Text GLabel 9050 4150 0    39   Input ~ 0
AnalogOut_7_for_ADC
Text GLabel 9050 4450 0    39   Input ~ 0
AnalogOut_8_for_ADC
Text GLabel 13050 4850 0    39   Input ~ 0
24VDC_DigitalOut_7
Text GLabel 13050 4950 0    39   Input ~ 0
24VDC_DigitalOut_8
Text GLabel 13050 5900 0    39   Input ~ 0
24VDC_DigitalOut_15
Text GLabel 13050 6000 0    39   Input ~ 0
24VDC_DigitalOut_16
$Comp
L R R7
U 1 1 5AD7B0D7
P 14950 3500
F 0 "R7" V 15030 3500 50  0000 C CNN
F 1 "33k" V 14950 3500 50  0000 C CNN
F 2 "Resistors_THT:R_Axial_DIN0207_L6.3mm_D2.5mm_P10.16mm_Horizontal" V 14880 3500 50  0001 C CNN
F 3 "" H 14950 3500 50  0001 C CNN
	1    14950 3500
	0    1    1    0   
$EndComp
$Comp
L R R23
U 1 1 5AD7B0DD
P 15350 3500
F 0 "R23" V 15430 3500 50  0000 C CNN
F 1 "5k6" V 15350 3500 50  0000 C CNN
F 2 "Resistors_THT:R_Axial_DIN0207_L6.3mm_D2.5mm_P10.16mm_Horizontal" V 15280 3500 50  0001 C CNN
F 3 "" H 15350 3500 50  0001 C CNN
	1    15350 3500
	0    -1   -1   0   
$EndComp
$Comp
L GND #PWR025
U 1 1 5AD7B0E3
P 15600 3500
F 0 "#PWR025" H 15600 3250 50  0001 C CNN
F 1 "GND" H 15600 3350 50  0000 C CNN
F 2 "" H 15600 3500 50  0001 C CNN
F 3 "" H 15600 3500 50  0001 C CNN
	1    15600 3500
	1    0    0    -1  
$EndComp
Text GLabel 15150 3700 0    39   Input ~ 0
DigitalOut_7_for_RPI
$Comp
L R R8
U 1 1 5AD7B186
P 14950 3900
F 0 "R8" V 15030 3900 50  0000 C CNN
F 1 "33k" V 14950 3900 50  0000 C CNN
F 2 "Resistors_THT:R_Axial_DIN0207_L6.3mm_D2.5mm_P10.16mm_Horizontal" V 14880 3900 50  0001 C CNN
F 3 "" H 14950 3900 50  0001 C CNN
	1    14950 3900
	0    1    1    0   
$EndComp
$Comp
L R R24
U 1 1 5AD7B18C
P 15350 3900
F 0 "R24" V 15430 3900 50  0000 C CNN
F 1 "5k6" V 15350 3900 50  0000 C CNN
F 2 "Resistors_THT:R_Axial_DIN0207_L6.3mm_D2.5mm_P10.16mm_Horizontal" V 15280 3900 50  0001 C CNN
F 3 "" H 15350 3900 50  0001 C CNN
	1    15350 3900
	0    -1   -1   0   
$EndComp
$Comp
L GND #PWR026
U 1 1 5AD7B192
P 15600 3900
F 0 "#PWR026" H 15600 3650 50  0001 C CNN
F 1 "GND" H 15600 3750 50  0000 C CNN
F 2 "" H 15600 3900 50  0001 C CNN
F 3 "" H 15600 3900 50  0001 C CNN
	1    15600 3900
	1    0    0    -1  
$EndComp
Text GLabel 15150 4100 0    39   Input ~ 0
DigitalOut_8_for_RPI
Text GLabel 14800 3500 0    39   Input ~ 0
24VDC_DigitalOut_7
Text GLabel 14800 3900 0    39   Input ~ 0
24VDC_DigitalOut_8
$Comp
L R R15
U 1 1 5AD7BBEF
P 14950 6650
F 0 "R15" V 15030 6650 50  0000 C CNN
F 1 "33k" V 14950 6650 50  0000 C CNN
F 2 "Resistors_THT:R_Axial_DIN0207_L6.3mm_D2.5mm_P10.16mm_Horizontal" V 14880 6650 50  0001 C CNN
F 3 "" H 14950 6650 50  0001 C CNN
	1    14950 6650
	0    1    1    0   
$EndComp
$Comp
L R R31
U 1 1 5AD7BBF5
P 15350 6650
F 0 "R31" V 15430 6650 50  0000 C CNN
F 1 "5k6" V 15350 6650 50  0000 C CNN
F 2 "Resistors_THT:R_Axial_DIN0207_L6.3mm_D2.5mm_P10.16mm_Horizontal" V 15280 6650 50  0001 C CNN
F 3 "" H 15350 6650 50  0001 C CNN
	1    15350 6650
	0    -1   -1   0   
$EndComp
$Comp
L GND #PWR027
U 1 1 5AD7BBFB
P 15600 6650
F 0 "#PWR027" H 15600 6400 50  0001 C CNN
F 1 "GND" H 15600 6500 50  0000 C CNN
F 2 "" H 15600 6650 50  0001 C CNN
F 3 "" H 15600 6650 50  0001 C CNN
	1    15600 6650
	1    0    0    -1  
$EndComp
Text GLabel 15150 6850 0    39   Input ~ 0
DigitalOut_15_for_RPI
$Comp
L R R16
U 1 1 5AD7BC07
P 14950 7050
F 0 "R16" V 15030 7050 50  0000 C CNN
F 1 "33k" V 14950 7050 50  0000 C CNN
F 2 "Resistors_THT:R_Axial_DIN0207_L6.3mm_D2.5mm_P10.16mm_Horizontal" V 14880 7050 50  0001 C CNN
F 3 "" H 14950 7050 50  0001 C CNN
	1    14950 7050
	0    1    1    0   
$EndComp
$Comp
L R R32
U 1 1 5AD7BC0D
P 15350 7050
F 0 "R32" V 15430 7050 50  0000 C CNN
F 1 "5k6" V 15350 7050 50  0000 C CNN
F 2 "Resistors_THT:R_Axial_DIN0207_L6.3mm_D2.5mm_P10.16mm_Horizontal" V 15280 7050 50  0001 C CNN
F 3 "" H 15350 7050 50  0001 C CNN
	1    15350 7050
	0    -1   -1   0   
$EndComp
$Comp
L GND #PWR028
U 1 1 5AD7BC13
P 15600 7050
F 0 "#PWR028" H 15600 6800 50  0001 C CNN
F 1 "GND" H 15600 6900 50  0000 C CNN
F 2 "" H 15600 7050 50  0001 C CNN
F 3 "" H 15600 7050 50  0001 C CNN
	1    15600 7050
	1    0    0    -1  
$EndComp
Text GLabel 15150 7250 0    39   Input ~ 0
DigitalOut_16_for_RPI
Text GLabel 14800 6650 0    39   Input ~ 0
24VDC_DigitalOut_15
Text GLabel 14800 7050 0    39   Input ~ 0
24VDC_DigitalOut_16
Text GLabel 2900 2950 0    39   Input ~ 0
DigitalOut_15_for_RPI
Text GLabel 2900 3050 0    39   Input ~ 0
DigitalOut_16_for_RPI
Text GLabel 2900 2150 0    39   Input ~ 0
DigitalOut_8_for_RPI
Text GLabel 2900 2050 0    39   Input ~ 0
DigitalOut_7_for_RPI
$Comp
L GND #PWR029
U 1 1 5AD7D067
P 8250 4750
F 0 "#PWR029" H 8250 4500 50  0001 C CNN
F 1 "GND" H 8250 4600 50  0000 C CNN
F 2 "" H 8250 4750 50  0001 C CNN
F 3 "" H 8250 4750 50  0001 C CNN
	1    8250 4750
	1    0    0    -1  
$EndComp
$Comp
L GND #PWR030
U 1 1 5AD7D6FA
P 6250 2600
F 0 "#PWR030" H 6250 2350 50  0001 C CNN
F 1 "GND" H 6250 2450 50  0000 C CNN
F 2 "" H 6250 2600 50  0001 C CNN
F 3 "" H 6250 2600 50  0001 C CNN
	1    6250 2600
	1    0    0    -1  
$EndComp
Text GLabel 13050 3200 0    39   Input ~ 0
AnalogIN_4
$Comp
L R R41
U 1 1 5AD7EDFA
P 13950 7800
F 0 "R41" V 14030 7800 50  0000 C CNN
F 1 "1k" V 13950 7800 50  0000 C CNN
F 2 "Resistors_THT:R_Axial_DIN0207_L6.3mm_D2.5mm_P5.08mm_Vertical" V 13880 7800 50  0001 C CNN
F 3 "" H 13950 7800 50  0001 C CNN
	1    13950 7800
	0    1    1    0   
$EndComp
$Comp
L R R42
U 1 1 5AD7F33F
P 13950 8100
F 0 "R42" V 14030 8100 50  0000 C CNN
F 1 "1k" V 13950 8100 50  0000 C CNN
F 2 "Resistors_THT:R_Axial_DIN0207_L6.3mm_D2.5mm_P5.08mm_Vertical" V 13880 8100 50  0001 C CNN
F 3 "" H 13950 8100 50  0001 C CNN
	1    13950 8100
	0    1    1    0   
$EndComp
$Comp
L R R43
U 1 1 5AD7F4B7
P 13950 8400
F 0 "R43" V 14030 8400 50  0000 C CNN
F 1 "1k" V 13950 8400 50  0000 C CNN
F 2 "Resistors_THT:R_Axial_DIN0207_L6.3mm_D2.5mm_P5.08mm_Vertical" V 13880 8400 50  0001 C CNN
F 3 "" H 13950 8400 50  0001 C CNN
	1    13950 8400
	0    1    1    0   
$EndComp
$Comp
L R R44
U 1 1 5AD7F70E
P 13950 8700
F 0 "R44" V 14030 8700 50  0000 C CNN
F 1 "1k" V 13950 8700 50  0000 C CNN
F 2 "Resistors_THT:R_Axial_DIN0207_L6.3mm_D2.5mm_P5.08mm_Vertical" V 13880 8700 50  0001 C CNN
F 3 "" H 13950 8700 50  0001 C CNN
	1    13950 8700
	0    1    1    0   
$EndComp
$Comp
L R R45
U 1 1 5AD7F85C
P 13950 9000
F 0 "R45" V 14030 9000 50  0000 C CNN
F 1 "1k" V 13950 9000 50  0000 C CNN
F 2 "Resistors_THT:R_Axial_DIN0207_L6.3mm_D2.5mm_P5.08mm_Vertical" V 13880 9000 50  0001 C CNN
F 3 "" H 13950 9000 50  0001 C CNN
	1    13950 9000
	0    1    1    0   
$EndComp
$Comp
L R R46
U 1 1 5AD7F9A5
P 13950 9250
F 0 "R46" V 14030 9250 50  0000 C CNN
F 1 "1k" V 13950 9250 50  0000 C CNN
F 2 "Resistors_THT:R_Axial_DIN0207_L6.3mm_D2.5mm_P5.08mm_Vertical" V 13880 9250 50  0001 C CNN
F 3 "" H 13950 9250 50  0001 C CNN
	1    13950 9250
	0    1    1    0   
$EndComp
$Comp
L R R47
U 1 1 5AD7FE9B
P 13950 9500
F 0 "R47" V 14030 9500 50  0000 C CNN
F 1 "1k" V 13950 9500 50  0000 C CNN
F 2 "Resistors_THT:R_Axial_DIN0207_L6.3mm_D2.5mm_P5.08mm_Vertical" V 13880 9500 50  0001 C CNN
F 3 "" H 13950 9500 50  0001 C CNN
	1    13950 9500
	0    1    1    0   
$EndComp
$Comp
L R R48
U 1 1 5AD7FFF0
P 13950 9750
F 0 "R48" V 14030 9750 50  0000 C CNN
F 1 "1k" V 13950 9750 50  0000 C CNN
F 2 "Resistors_THT:R_Axial_DIN0207_L6.3mm_D2.5mm_P5.08mm_Vertical" V 13880 9750 50  0001 C CNN
F 3 "" H 13950 9750 50  0001 C CNN
	1    13950 9750
	0    1    1    0   
$EndComp
Text GLabel 13550 7800 0    39   Input ~ 0
PT1000_1
Text GLabel 13550 8100 0    39   Input ~ 0
PT1000_2
Text GLabel 14350 7800 2    39   Input ~ 0
PT1000_1_GND
Text GLabel 14350 8100 2    39   Input ~ 0
PT1000_2_GND
Text GLabel 13550 8400 0    39   Input ~ 0
PT1000_3
Text GLabel 14350 8400 2    39   Input ~ 0
PT1000_3_GND
Text GLabel 13550 8700 0    39   Input ~ 0
PT1000_4
Text GLabel 14350 8700 2    39   Input ~ 0
PT1000_4_GND
Text GLabel 13550 9000 0    39   Input ~ 0
PT1000_5
Text GLabel 14350 9000 2    39   Input ~ 0
PT1000_5_GND
Text GLabel 13550 9250 0    39   Input ~ 0
PT1000_6
Text GLabel 14350 9250 2    39   Input ~ 0
PT1000_6_GND
Text GLabel 13550 9500 0    39   Input ~ 0
PT1000_7
Text GLabel 14350 9500 2    39   Input ~ 0
PT1000_7_GND
Text GLabel 13550 9750 0    39   Input ~ 0
PT1000_8
Text GLabel 14350 9750 2    39   Input ~ 0
PT1000_8_GND
$Comp
L +3V3 #PWR031
U 1 1 5AD88A2A
P 3400 1250
F 0 "#PWR031" H 3400 1100 50  0001 C CNN
F 1 "+3V3" H 3400 1390 50  0000 C CNN
F 2 "" H 3400 1250 50  0001 C CNN
F 3 "" H 3400 1250 50  0001 C CNN
	1    3400 1250
	1    0    0    -1  
$EndComp
$Comp
L +3V3 #PWR032
U 1 1 5AD9D6DB
P 4150 4250
F 0 "#PWR032" H 4150 4100 50  0001 C CNN
F 1 "+3V3" H 4150 4390 50  0000 C CNN
F 2 "" H 4150 4250 50  0001 C CNN
F 3 "" H 4150 4250 50  0001 C CNN
	1    4150 4250
	1    0    0    -1  
$EndComp
Text GLabel 13050 6550 0    39   Input ~ 0
0-10V_AnalogOut_3
Text GLabel 13050 6650 0    39   Input ~ 0
0-10V_AnalogOut_4
Text GLabel 13050 6750 0    39   Input ~ 0
0-10V_AnalogOut_5
Text GLabel 13050 6850 0    39   Input ~ 0
0-10V_AnalogOut_6
Text GLabel 13050 6950 0    39   Input ~ 0
0-10V_AnalogOut_7
Text GLabel 13050 7050 0    39   Input ~ 0
0-10V_AnalogOut_8
Text GLabel 13050 3800 0    39   Input ~ 0
SPS+_1
Text GLabel 13050 3900 0    39   Input ~ 0
SPS+_2
Text GLabel 3650 4450 0    39   Input ~ 0
Relaisboard1_IN1
Text GLabel 3650 4550 0    39   Input ~ 0
Relaisboard1_IN2
Text GLabel 3650 4650 0    39   Input ~ 0
Relaisboard1_IN3
Text GLabel 3650 4750 0    39   Input ~ 0
Relaisboard1_IN4
Text GLabel 3650 4850 0    39   Input ~ 0
Relaisboard1_IN5
Text GLabel 3650 4950 0    39   Input ~ 0
Relaisboard1_IN6
Text GLabel 3650 5050 0    39   Input ~ 0
Relaisboard1_IN7
Text GLabel 3650 5150 0    39   Input ~ 0
Relaisboard1_IN8
Text GLabel 2750 5650 0    39   Input ~ 0
Relaisboard2_IN1
Text GLabel 3650 5450 0    39   Input ~ 0
Relaisboard2_IN2
Text GLabel 3650 5550 0    39   Input ~ 0
Relaisboard2_IN3
Text GLabel 3650 5650 0    39   Input ~ 0
Relaisboard2_IN4
Text GLabel 3650 5750 0    39   Input ~ 0
Relaisboard2_IN5
Text GLabel 3650 5850 0    39   Input ~ 0
Relaisboard2_IN6
Text GLabel 3650 5950 0    39   Input ~ 0
Relaisboard2_IN7
Text GLabel 3650 6050 0    39   Input ~ 0
Relaisboard2_IN8
$Comp
L Screw_Terminal_01x08 J2
U 1 1 5ADDC911
P 13250 1350
F 0 "J2" H 13250 1750 50  0000 C CNN
F 1 "PT1000_Sensoren_1" H 13250 850 50  0000 C CNN
F 2 "Bachelor:TerminalBlock_bornier-8_P5.08mm" H 13250 1350 50  0001 C CNN
F 3 "" H 13250 1350 50  0001 C CNN
	1    13250 1350
	1    0    0    -1  
$EndComp
$Comp
L Screw_Terminal_01x08 J4
U 1 1 5ADDCE92
P 13250 3500
F 0 "J4" H 13250 3900 50  0000 C CNN
F 1 "SPS_AnalogINs" H 13250 3000 50  0000 C CNN
F 2 "Bachelor:TerminalBlock_bornier-8_P5.08mm" H 13250 3500 50  0001 C CNN
F 3 "" H 13250 3500 50  0001 C CNN
	1    13250 3500
	1    0    0    -1  
$EndComp
$Comp
L Screw_Terminal_01x08 J3
U 1 1 5ADDDA32
P 13250 2450
F 0 "J3" H 13250 2850 50  0000 C CNN
F 1 "PT1000_Sensoren_2" H 13250 1950 50  0000 C CNN
F 2 "Bachelor:TerminalBlock_bornier-8_P5.08mm" H 13250 2450 50  0001 C CNN
F 3 "" H 13250 2450 50  0001 C CNN
	1    13250 2450
	1    0    0    -1  
$EndComp
$Comp
L Screw_Terminal_01x08 J5
U 1 1 5ADDDB1C
P 13250 4550
F 0 "J5" H 13250 4950 50  0000 C CNN
F 1 "SPS_DigitalOuts_1" H 13250 4050 50  0000 C CNN
F 2 "Bachelor:TerminalBlock_bornier-8_P5.08mm" H 13250 4550 50  0001 C CNN
F 3 "" H 13250 4550 50  0001 C CNN
	1    13250 4550
	1    0    0    -1  
$EndComp
$Comp
L Screw_Terminal_01x08 J6
U 1 1 5ADDE05D
P 13250 5600
F 0 "J6" H 13250 6000 50  0000 C CNN
F 1 "SPS_DigitalOuts_2" H 13250 5100 50  0000 C CNN
F 2 "Bachelor:TerminalBlock_bornier-8_P5.08mm" H 13250 5600 50  0001 C CNN
F 3 "" H 13250 5600 50  0001 C CNN
	1    13250 5600
	1    0    0    -1  
$EndComp
$Comp
L Screw_Terminal_01x08 J7
U 1 1 5ADDE14E
P 13250 6650
F 0 "J7" H 13250 7050 50  0000 C CNN
F 1 "SPS_AnalogOuts" H 13250 6150 50  0000 C CNN
F 2 "Bachelor:TerminalBlock_bornier-8_P5.08mm" H 13250 6650 50  0001 C CNN
F 3 "" H 13250 6650 50  0001 C CNN
	1    13250 6650
	1    0    0    -1  
$EndComp
$Comp
L Conn_01x10_Female J11
U 1 1 5ADDF7CE
P 1650 2800
F 0 "J11" H 1650 3300 50  0000 C CNN
F 1 "MCP23017 (1) Bank 2" H 1650 2200 50  0000 C CNN
F 2 "Socket_Strips:Socket_Strip_Straight_1x10_Pitch2.54mm" H 1650 2800 50  0001 C CNN
F 3 "" H 1650 2800 50  0001 C CNN
	1    1650 2800
	1    0    0    -1  
$EndComp
Text GLabel 2750 5750 0    39   Input ~ 0
Relaisboard2_IN2
Text GLabel 2750 5850 0    39   Input ~ 0
Relaisboard2_IN3
Text GLabel 2750 5950 0    39   Input ~ 0
Relaisboard2_IN4
Text GLabel 2750 6050 0    39   Input ~ 0
Relaisboard2_IN5
Text GLabel 2750 6150 0    39   Input ~ 0
Relaisboard2_IN6
Text GLabel 2750 6250 0    39   Input ~ 0
Relaisboard2_IN7
Text GLabel 2750 6350 0    39   Input ~ 0
Relaisboard2_IN8
Text GLabel 3650 5350 0    39   Input ~ 0
Relaisboard2_IN1
$Comp
L Conn_01x10_Female J10
U 1 1 5ADE0EF1
P 1650 1600
F 0 "J10" H 1650 2100 50  0000 C CNN
F 1 "MCP23017 (1) Bank 1" H 1650 1000 50  0000 C CNN
F 2 "Socket_Strips:Socket_Strip_Straight_1x10_Pitch2.54mm" H 1650 1600 50  0001 C CNN
F 3 "" H 1650 1600 50  0001 C CNN
	1    1650 1600
	1    0    0    -1  
$EndComp
Text GLabel 2750 4450 0    39   Input ~ 0
Relaisboard1_IN8
Text GLabel 2750 4550 0    39   Input ~ 0
Relaisboard1_IN7
Text GLabel 2750 4650 0    39   Input ~ 0
Relaisboard1_IN6
Text GLabel 2750 4750 0    39   Input ~ 0
Relaisboard1_IN5
Text GLabel 2750 4850 0    39   Input ~ 0
Relaisboard1_IN4
Text GLabel 2750 4950 0    39   Input ~ 0
Relaisboard1_IN3
Text GLabel 2750 5050 0    39   Input ~ 0
Relaisboard1_IN2
Text GLabel 2750 5150 0    39   Input ~ 0
Relaisboard1_IN1
$Comp
L Conn_01x10_Female J19
U 1 1 5ADE3B50
P 6100 4800
F 0 "J19" H 6100 5300 50  0000 C CNN
F 1 "MCP23017 (2) Bank 3" H 6100 4200 50  0000 C CNN
F 2 "Socket_Strips:Socket_Strip_Straight_1x10_Pitch2.54mm" H 6100 4800 50  0001 C CNN
F 3 "" H 6100 4800 50  0001 C CNN
	1    6100 4800
	1    0    0    -1  
$EndComp
Text GLabel 5900 5100 0    39   Input ~ 0
RPi_Pin5_SCL1
Text GLabel 5900 5000 0    39   Input ~ 0
RPi_Pin3_SDA1
$Comp
L GND #PWR033
U 1 1 5ADE4B6A
P 4150 6250
F 0 "#PWR033" H 4150 6000 50  0001 C CNN
F 1 "GND" H 4150 6100 50  0000 C CNN
F 2 "" H 4150 6250 50  0001 C CNN
F 3 "" H 4150 6250 50  0001 C CNN
	1    4150 6250
	1    0    0    -1  
$EndComp
$Comp
L +3V3 #PWR034
U 1 1 5ADE4C47
P 5550 5500
F 0 "#PWR034" H 5550 5350 50  0001 C CNN
F 1 "+3V3" H 5550 5640 50  0000 C CNN
F 2 "" H 5550 5500 50  0001 C CNN
F 3 "" H 5550 5500 50  0001 C CNN
	1    5550 5500
	1    0    0    -1  
$EndComp
$Comp
L Conn_01x10_Female J9
U 1 1 5ADE614D
P 2950 5850
F 0 "J9" H 2950 6350 50  0000 C CNN
F 1 "MCP23017 (2) Bank 2" H 2950 5250 50  0000 C CNN
F 2 "Socket_Strips:Socket_Strip_Straight_1x10_Pitch2.54mm" H 2950 5850 50  0001 C CNN
F 3 "" H 2950 5850 50  0001 C CNN
	1    2950 5850
	1    0    0    -1  
$EndComp
$Comp
L Conn_01x10_Female J8
U 1 1 5ADE670B
P 2950 4650
F 0 "J8" H 2950 5150 50  0000 C CNN
F 1 "MCP23017 (2) Bank 1" H 2950 4050 50  0000 C CNN
F 2 "Socket_Strips:Socket_Strip_Straight_1x10_Pitch2.54mm" H 2950 4650 50  0001 C CNN
F 3 "" H 2950 4650 50  0001 C CNN
	1    2950 4650
	1    0    0    -1  
$EndComp
Text GLabel 1450 2600 0    39   Input ~ 0
CPU-Fan+Heizregister_for_RPI
Text GLabel 1450 2700 0    39   Input ~ 0
Kühl-CPU-Fan_for_RPI
Text GLabel 1450 2800 0    39   Input ~ 0
Jalousie_UP_for_RPI
Text GLabel 1450 2900 0    39   Input ~ 0
Jalousie_DOWN_for_RPI
Text GLabel 1450 3000 0    39   Input ~ 0
Spot1_for_RPI
Text GLabel 1450 3100 0    39   Input ~ 0
Spot2_for_RPI
Text GLabel 1450 3200 0    39   Input ~ 0
DigitalOut_15_for_RPI
Text GLabel 1450 3300 0    39   Input ~ 0
DigitalOut_16_for_RPI
Text GLabel 1450 2100 0    39   Input ~ 0
DigitalOut_8_for_RPI
Text GLabel 1450 2000 0    39   Input ~ 0
DigitalOut_7_for_RPI
Text GLabel 1450 1900 0    39   Input ~ 0
Ventilator_Abluft_for_RPI
Text GLabel 1450 1800 0    39   Input ~ 0
Ventilator_Zuluft_for_RPI
Text GLabel 1450 1700 0    39   Input ~ 0
Kühlpumpe_for_RPI
Text GLabel 1450 1600 0    39   Input ~ 0
Kältepumpe_for_RPI
Text GLabel 1450 1500 0    39   Input ~ 0
Heizpumpe_for_RPI
Text GLabel 1450 1400 0    39   Input ~ 0
Boiler_for_RPI
$Comp
L GND #PWR035
U 1 1 5ADE7E4C
P 4950 2300
F 0 "#PWR035" H 4950 2050 50  0001 C CNN
F 1 "GND" H 4950 2150 50  0000 C CNN
F 2 "" H 4950 2300 50  0001 C CNN
F 3 "" H 4950 2300 50  0001 C CNN
	1    4950 2300
	1    0    0    -1  
$EndComp
$Comp
L Conn_01x10_Female J18
U 1 1 5ADE7E52
P 5700 1900
F 0 "J18" H 5700 2400 50  0000 C CNN
F 1 "MCP23017 (1) Bank 3" H 5700 1300 50  0000 C CNN
F 2 "Socket_Strips:Socket_Strip_Straight_1x10_Pitch2.54mm" H 5700 1900 50  0001 C CNN
F 3 "" H 5700 1900 50  0001 C CNN
	1    5700 1900
	1    0    0    -1  
$EndComp
Text GLabel 5500 2200 0    39   Input ~ 0
RPi_Pin5_SCL1
Text GLabel 5500 2100 0    39   Input ~ 0
RPi_Pin3_SDA1
$Comp
L +3V3 #PWR036
U 1 1 5ADE7E5A
P 5150 2600
F 0 "#PWR036" H 5150 2450 50  0001 C CNN
F 1 "+3V3" H 5150 2740 50  0000 C CNN
F 2 "" H 5150 2600 50  0001 C CNN
F 3 "" H 5150 2600 50  0001 C CNN
	1    5150 2600
	1    0    0    -1  
$EndComp
$Comp
L GND #PWR037
U 1 1 5ADE8786
P 2400 4050
F 0 "#PWR037" H 2400 3800 50  0001 C CNN
F 1 "GND" H 2400 3900 50  0000 C CNN
F 2 "" H 2400 4050 50  0001 C CNN
F 3 "" H 2400 4050 50  0001 C CNN
	1    2400 4050
	1    0    0    -1  
$EndComp
$Comp
L +3V3 #PWR038
U 1 1 5ADE8B0E
P 2400 5450
F 0 "#PWR038" H 2400 5300 50  0001 C CNN
F 1 "+3V3" H 2400 5590 50  0000 C CNN
F 2 "" H 2400 5450 50  0001 C CNN
F 3 "" H 2400 5450 50  0001 C CNN
	1    2400 5450
	1    0    0    -1  
$EndComp
NoConn ~ 4650 4850
NoConn ~ 4650 4950
NoConn ~ 2750 5550
NoConn ~ 2750 4350
NoConn ~ 5900 4900
NoConn ~ 5900 4800
NoConn ~ 5500 2000
NoConn ~ 5500 1900
NoConn ~ 1450 1300
NoConn ~ 1450 2500
$Comp
L GND #PWR039
U 1 1 5ADEA620
P 1050 950
F 0 "#PWR039" H 1050 700 50  0001 C CNN
F 1 "GND" H 1050 800 50  0000 C CNN
F 2 "" H 1050 950 50  0001 C CNN
F 3 "" H 1050 950 50  0001 C CNN
	1    1050 950 
	1    0    0    -1  
$EndComp
$Comp
L +3V3 #PWR040
U 1 1 5ADEA798
P 1000 2400
F 0 "#PWR040" H 1000 2250 50  0001 C CNN
F 1 "+3V3" H 1000 2540 50  0000 C CNN
F 2 "" H 1000 2400 50  0001 C CNN
F 3 "" H 1000 2400 50  0001 C CNN
	1    1000 2400
	1    0    0    -1  
$EndComp
$Comp
L Conn_01x08_Female J21
U 1 1 5ADEC83F
P 7750 4050
F 0 "J21" H 7750 4450 50  0000 C CNN
F 1 "MCP3424 (2) Bank 1" H 7750 3550 50  0000 C CNN
F 2 "Socket_Strips:Socket_Strip_Straight_1x08_Pitch2.54mm" H 7750 4050 50  0001 C CNN
F 3 "" H 7750 4050 50  0001 C CNN
	1    7750 4050
	1    0    0    -1  
$EndComp
$Comp
L Conn_01x08_Female J20
U 1 1 5ADEC94E
P 7300 1850
F 0 "J20" H 7300 2250 50  0000 C CNN
F 1 "MCP3424 (1) Bank 1" H 7300 1350 50  0000 C CNN
F 2 "Socket_Strips:Socket_Strip_Straight_1x08_Pitch2.54mm" H 7300 1850 50  0001 C CNN
F 3 "" H 7300 1850 50  0001 C CNN
	1    7300 1850
	1    0    0    -1  
$EndComp
$Comp
L Conn_01x06_Female J26
U 1 1 5ADECC23
P 11550 2150
F 0 "J26" H 11550 2450 50  0000 C CNN
F 1 "MCP3424 (1) Bank 2" H 11550 1750 50  0000 C CNN
F 2 "Socket_Strips:Socket_Strip_Straight_1x06_Pitch2.54mm" H 11550 2150 50  0001 C CNN
F 3 "" H 11550 2150 50  0001 C CNN
	1    11550 2150
	1    0    0    -1  
$EndComp
$Comp
L Conn_01x06_Female J27
U 1 1 5ADECD86
P 11750 4050
F 0 "J27" H 11750 4350 50  0000 C CNN
F 1 "MCP3424 (2) Bank 2" H 11750 3650 50  0000 C CNN
F 2 "Socket_Strips:Socket_Strip_Straight_1x06_Pitch2.54mm" H 11750 4050 50  0001 C CNN
F 3 "" H 11750 4050 50  0001 C CNN
	1    11750 4050
	1    0    0    -1  
$EndComp
Text GLabel 11350 2250 0    39   Input ~ 0
RPi_Pin3_SDA1
Text GLabel 11350 2150 0    39   Input ~ 0
RPi_Pin5_SCL1
$Comp
L GND #PWR041
U 1 1 5ADF00F4
P 10750 1900
F 0 "#PWR041" H 10750 1650 50  0001 C CNN
F 1 "GND" H 10750 1750 50  0000 C CNN
F 2 "" H 10750 1900 50  0001 C CNN
F 3 "" H 10750 1900 50  0001 C CNN
	1    10750 1900
	1    0    0    -1  
$EndComp
$Comp
L +3V3 #PWR042
U 1 1 5ADF01A2
P 11200 1950
F 0 "#PWR042" H 11200 1800 50  0001 C CNN
F 1 "+3V3" H 11200 2090 50  0000 C CNN
F 2 "" H 11200 1950 50  0001 C CNN
F 3 "" H 11200 1950 50  0001 C CNN
	1    11200 1950
	1    0    0    -1  
$EndComp
Text GLabel 11550 4150 0    39   Input ~ 0
RPi_Pin3_SDA1
Text GLabel 11550 4050 0    39   Input ~ 0
RPi_Pin5_SCL1
$Comp
L GND #PWR043
U 1 1 5ADF055D
P 10950 3800
F 0 "#PWR043" H 10950 3550 50  0001 C CNN
F 1 "GND" H 10950 3650 50  0000 C CNN
F 2 "" H 10950 3800 50  0001 C CNN
F 3 "" H 10950 3800 50  0001 C CNN
	1    10950 3800
	1    0    0    -1  
$EndComp
$Comp
L +3V3 #PWR044
U 1 1 5ADF0563
P 11400 3850
F 0 "#PWR044" H 11400 3700 50  0001 C CNN
F 1 "+3V3" H 11400 3990 50  0000 C CNN
F 2 "" H 11400 3850 50  0001 C CNN
F 3 "" H 11400 3850 50  0001 C CNN
	1    11400 3850
	1    0    0    -1  
$EndComp
Text GLabel 7100 1950 0    39   Input ~ 0
Mischventil_for_ADC
Text GLabel 7100 2150 0    39   Input ~ 0
Belimo_for_ADC
Text GLabel 7100 1850 0    39   Input ~ 0
AnalogOut_3_for_ADC
Text GLabel 7100 1650 0    39   Input ~ 0
AnalogOut_4_for_ADC
$Comp
L GND #PWR045
U 1 1 5ADF1D8F
P 8000 2600
F 0 "#PWR045" H 8000 2350 50  0001 C CNN
F 1 "GND" H 8000 2450 50  0000 C CNN
F 2 "" H 8000 2600 50  0001 C CNN
F 3 "" H 8000 2600 50  0001 C CNN
	1    8000 2600
	1    0    0    -1  
$EndComp
Text GLabel 7550 3850 0    39   Input ~ 0
AnalogOut_5_for_ADC
Text GLabel 7550 4050 0    39   Input ~ 0
AnalogOut_6_for_ADC
Text GLabel 7550 4150 0    39   Input ~ 0
AnalogOut_7_for_ADC
Text GLabel 7550 4350 0    39   Input ~ 0
AnalogOut_8_for_ADC
$Comp
L GND #PWR046
U 1 1 5ADF2AFA
P 6650 4700
F 0 "#PWR046" H 6650 4450 50  0001 C CNN
F 1 "GND" H 6650 4550 50  0000 C CNN
F 2 "" H 6650 4700 50  0001 C CNN
F 3 "" H 6650 4700 50  0001 C CNN
	1    6650 4700
	1    0    0    -1  
$EndComp
$Comp
L +3V3 #PWR047
U 1 1 5ADFBDC9
P 9650 3350
F 0 "#PWR047" H 9650 3200 50  0001 C CNN
F 1 "+3V3" H 9650 3490 50  0000 C CNN
F 2 "" H 9650 3350 50  0001 C CNN
F 3 "" H 9650 3350 50  0001 C CNN
	1    9650 3350
	1    0    0    -1  
$EndComp
$Comp
L +3V3 #PWR048
U 1 1 5ADFC0A7
P 9400 1150
F 0 "#PWR048" H 9400 1000 50  0001 C CNN
F 1 "+3V3" H 9400 1290 50  0000 C CNN
F 2 "" H 9400 1150 50  0001 C CNN
F 3 "" H 9400 1150 50  0001 C CNN
	1    9400 1150
	1    0    0    -1  
$EndComp
$Comp
L GS3 J13
U 1 1 5ADFC6C5
P 4650 3900
F 0 "J13" H 4700 4100 50  0000 C CNN
F 1 "A0" H 4700 3701 50  0000 C CNN
F 2 "Socket_Strips:Socket_Strip_Straight_1x03_Pitch2.54mm" V 4738 3826 50  0001 C CNN
F 3 "" H 4650 3900 50  0001 C CNN
	1    4650 3900
	1    0    0    -1  
$EndComp
$Comp
L GS3 J15
U 1 1 5AE006BA
P 5100 3900
F 0 "J15" H 5150 4100 50  0000 C CNN
F 1 "A1" H 5150 3701 50  0000 C CNN
F 2 "Socket_Strips:Socket_Strip_Straight_1x03_Pitch2.54mm" V 5188 3826 50  0001 C CNN
F 3 "" H 5100 3900 50  0001 C CNN
	1    5100 3900
	1    0    0    -1  
$EndComp
$Comp
L GS3 J17
U 1 1 5AE00861
P 5550 3900
F 0 "J17" H 5600 4100 50  0000 C CNN
F 1 "A2" H 5600 3701 50  0000 C CNN
F 2 "Socket_Strips:Socket_Strip_Straight_1x03_Pitch2.54mm" V 5638 3826 50  0001 C CNN
F 3 "" H 5550 3900 50  0001 C CNN
	1    5550 3900
	1    0    0    -1  
$EndComp
$Comp
L GND #PWR049
U 1 1 5AE017FC
P 4500 4000
F 0 "#PWR049" H 4500 3750 50  0001 C CNN
F 1 "GND" H 4500 3850 50  0000 C CNN
F 2 "" H 4500 4000 50  0001 C CNN
F 3 "" H 4500 4000 50  0001 C CNN
	1    4500 4000
	1    0    0    -1  
$EndComp
$Comp
L GND #PWR050
U 1 1 5AE01A37
P 4950 4000
F 0 "#PWR050" H 4950 3750 50  0001 C CNN
F 1 "GND" H 4950 3850 50  0000 C CNN
F 2 "" H 4950 4000 50  0001 C CNN
F 3 "" H 4950 4000 50  0001 C CNN
	1    4950 4000
	1    0    0    -1  
$EndComp
$Comp
L GND #PWR051
U 1 1 5AE01B32
P 5400 4000
F 0 "#PWR051" H 5400 3750 50  0001 C CNN
F 1 "GND" H 5400 3850 50  0000 C CNN
F 2 "" H 5400 4000 50  0001 C CNN
F 3 "" H 5400 4000 50  0001 C CNN
	1    5400 4000
	1    0    0    -1  
$EndComp
$Comp
L GS3 J14
U 1 1 5AE01FD0
P 4700 1000
F 0 "J14" H 4750 1200 50  0000 C CNN
F 1 "A1" H 4750 801 50  0000 C CNN
F 2 "Socket_Strips:Socket_Strip_Straight_1x03_Pitch2.54mm" V 4788 926 50  0001 C CNN
F 3 "" H 4700 1000 50  0001 C CNN
	1    4700 1000
	1    0    0    -1  
$EndComp
$Comp
L GS3 J16
U 1 1 5AE020E8
P 5150 1000
F 0 "J16" H 5200 1200 50  0000 C CNN
F 1 "A2" H 5200 801 50  0000 C CNN
F 2 "Socket_Strips:Socket_Strip_Straight_1x03_Pitch2.54mm" V 5238 926 50  0001 C CNN
F 3 "" H 5150 1000 50  0001 C CNN
	1    5150 1000
	1    0    0    -1  
$EndComp
$Comp
L GS3 J12
U 1 1 5AE02DD7
P 4250 1000
F 0 "J12" H 4300 1200 50  0000 C CNN
F 1 "A0" H 4300 801 50  0000 C CNN
F 2 "Socket_Strips:Socket_Strip_Straight_1x03_Pitch2.54mm" V 4338 926 50  0001 C CNN
F 3 "" H 4250 1000 50  0001 C CNN
	1    4250 1000
	1    0    0    -1  
$EndComp
$Comp
L GND #PWR052
U 1 1 5AE0432A
P 4100 1100
F 0 "#PWR052" H 4100 850 50  0001 C CNN
F 1 "GND" H 4100 950 50  0000 C CNN
F 2 "" H 4100 1100 50  0001 C CNN
F 3 "" H 4100 1100 50  0001 C CNN
	1    4100 1100
	1    0    0    -1  
$EndComp
$Comp
L GND #PWR053
U 1 1 5AE0442E
P 4550 1100
F 0 "#PWR053" H 4550 850 50  0001 C CNN
F 1 "GND" H 4550 950 50  0000 C CNN
F 2 "" H 4550 1100 50  0001 C CNN
F 3 "" H 4550 1100 50  0001 C CNN
	1    4550 1100
	1    0    0    -1  
$EndComp
$Comp
L GND #PWR054
U 1 1 5AE04532
P 5000 1100
F 0 "#PWR054" H 5000 850 50  0001 C CNN
F 1 "GND" H 5000 950 50  0000 C CNN
F 2 "" H 5000 1100 50  0001 C CNN
F 3 "" H 5000 1100 50  0001 C CNN
	1    5000 1100
	1    0    0    -1  
$EndComp
$Comp
L GS3 J24
U 1 1 5AE04C0C
P 11000 2900
F 0 "J24" H 11050 3100 50  0000 C CNN
F 1 "AD1" H 11050 2701 50  0000 C CNN
F 2 "Socket_Strips:Socket_Strip_Straight_1x03_Pitch2.54mm" V 11088 2826 50  0001 C CNN
F 3 "" H 11000 2900 50  0001 C CNN
	1    11000 2900
	1    0    0    -1  
$EndComp
$Comp
L GS3 J22
U 1 1 5AE04DEC
P 10450 2900
F 0 "J22" H 10500 3100 50  0000 C CNN
F 1 "AD0" H 10500 2701 50  0000 C CNN
F 2 "Socket_Strips:Socket_Strip_Straight_1x03_Pitch2.54mm" V 10538 2826 50  0001 C CNN
F 3 "" H 10450 2900 50  0001 C CNN
	1    10450 2900
	1    0    0    -1  
$EndComp
$Comp
L GS3 J25
U 1 1 5AE05634
P 11200 4750
F 0 "J25" H 11250 4950 50  0000 C CNN
F 1 "AD1" H 11250 4551 50  0000 C CNN
F 2 "Socket_Strips:Socket_Strip_Straight_1x03_Pitch2.54mm" V 11288 4676 50  0001 C CNN
F 3 "" H 11200 4750 50  0001 C CNN
	1    11200 4750
	1    0    0    -1  
$EndComp
$Comp
L GS3 J23
U 1 1 5AE05762
P 10650 4750
F 0 "J23" H 10700 4950 50  0000 C CNN
F 1 "AD0" H 10700 4551 50  0000 C CNN
F 2 "Socket_Strips:Socket_Strip_Straight_1x03_Pitch2.54mm" V 10738 4676 50  0001 C CNN
F 3 "" H 10650 4750 50  0001 C CNN
	1    10650 4750
	1    0    0    -1  
$EndComp
$Comp
L GND #PWR055
U 1 1 5AE05B44
P 10500 4850
F 0 "#PWR055" H 10500 4600 50  0001 C CNN
F 1 "GND" H 10500 4700 50  0000 C CNN
F 2 "" H 10500 4850 50  0001 C CNN
F 3 "" H 10500 4850 50  0001 C CNN
	1    10500 4850
	1    0    0    -1  
$EndComp
$Comp
L GND #PWR056
U 1 1 5AE05D63
P 11050 4850
F 0 "#PWR056" H 11050 4600 50  0001 C CNN
F 1 "GND" H 11050 4700 50  0000 C CNN
F 2 "" H 11050 4850 50  0001 C CNN
F 3 "" H 11050 4850 50  0001 C CNN
	1    11050 4850
	1    0    0    -1  
$EndComp
$Comp
L GND #PWR057
U 1 1 5AE05E73
P 10300 3000
F 0 "#PWR057" H 10300 2750 50  0001 C CNN
F 1 "GND" H 10300 2850 50  0000 C CNN
F 2 "" H 10300 3000 50  0001 C CNN
F 3 "" H 10300 3000 50  0001 C CNN
	1    10300 3000
	1    0    0    -1  
$EndComp
$Comp
L GND #PWR058
U 1 1 5AE05F83
P 10850 3000
F 0 "#PWR058" H 10850 2750 50  0001 C CNN
F 1 "GND" H 10850 2850 50  0000 C CNN
F 2 "" H 10850 3000 50  0001 C CNN
F 3 "" H 10850 3000 50  0001 C CNN
	1    10850 3000
	1    0    0    -1  
$EndComp
$Comp
L +3V3 #PWR059
U 1 1 5AE06C78
P 4000 800
F 0 "#PWR059" H 4000 650 50  0001 C CNN
F 1 "+3V3" H 4000 940 50  0000 C CNN
F 2 "" H 4000 800 50  0001 C CNN
F 3 "" H 4000 800 50  0001 C CNN
	1    4000 800 
	1    0    0    -1  
$EndComp
$Comp
L +3V3 #PWR060
U 1 1 5AE06FAE
P 4450 800
F 0 "#PWR060" H 4450 650 50  0001 C CNN
F 1 "+3V3" H 4450 940 50  0000 C CNN
F 2 "" H 4450 800 50  0001 C CNN
F 3 "" H 4450 800 50  0001 C CNN
	1    4450 800 
	1    0    0    -1  
$EndComp
$Comp
L +3V3 #PWR061
U 1 1 5AE070BE
P 4900 800
F 0 "#PWR061" H 4900 650 50  0001 C CNN
F 1 "+3V3" H 4900 940 50  0000 C CNN
F 2 "" H 4900 800 50  0001 C CNN
F 3 "" H 4900 800 50  0001 C CNN
	1    4900 800 
	1    0    0    -1  
$EndComp
$Comp
L +3V3 #PWR062
U 1 1 5AE07693
P 4400 3700
F 0 "#PWR062" H 4400 3550 50  0001 C CNN
F 1 "+3V3" H 4400 3840 50  0000 C CNN
F 2 "" H 4400 3700 50  0001 C CNN
F 3 "" H 4400 3700 50  0001 C CNN
	1    4400 3700
	1    0    0    -1  
$EndComp
$Comp
L +3V3 #PWR063
U 1 1 5AE077FA
P 4850 3700
F 0 "#PWR063" H 4850 3550 50  0001 C CNN
F 1 "+3V3" H 4850 3840 50  0000 C CNN
F 2 "" H 4850 3700 50  0001 C CNN
F 3 "" H 4850 3700 50  0001 C CNN
	1    4850 3700
	1    0    0    -1  
$EndComp
$Comp
L +3V3 #PWR064
U 1 1 5AE0790A
P 5300 3700
F 0 "#PWR064" H 5300 3550 50  0001 C CNN
F 1 "+3V3" H 5300 3840 50  0000 C CNN
F 2 "" H 5300 3700 50  0001 C CNN
F 3 "" H 5300 3700 50  0001 C CNN
	1    5300 3700
	1    0    0    -1  
$EndComp
$Comp
L +3V3 #PWR065
U 1 1 5AE0835C
P 10750 2700
F 0 "#PWR065" H 10750 2550 50  0001 C CNN
F 1 "+3V3" H 10750 2840 50  0000 C CNN
F 2 "" H 10750 2700 50  0001 C CNN
F 3 "" H 10750 2700 50  0001 C CNN
	1    10750 2700
	1    0    0    -1  
$EndComp
$Comp
L +3V3 #PWR066
U 1 1 5AE0846C
P 10200 2700
F 0 "#PWR066" H 10200 2550 50  0001 C CNN
F 1 "+3V3" H 10200 2840 50  0000 C CNN
F 2 "" H 10200 2700 50  0001 C CNN
F 3 "" H 10200 2700 50  0001 C CNN
	1    10200 2700
	1    0    0    -1  
$EndComp
$Comp
L +3V3 #PWR067
U 1 1 5AE08A3E
P 10950 4550
F 0 "#PWR067" H 10950 4400 50  0001 C CNN
F 1 "+3V3" H 10950 4690 50  0000 C CNN
F 2 "" H 10950 4550 50  0001 C CNN
F 3 "" H 10950 4550 50  0001 C CNN
	1    10950 4550
	1    0    0    -1  
$EndComp
$Comp
L +3V3 #PWR068
U 1 1 5AE08B4E
P 10400 4550
F 0 "#PWR068" H 10400 4400 50  0001 C CNN
F 1 "+3V3" H 10400 4690 50  0000 C CNN
F 2 "" H 10400 4550 50  0001 C CNN
F 3 "" H 10400 4550 50  0001 C CNN
	1    10400 4550
	1    0    0    -1  
$EndComp
NoConn ~ 4650 4450
NoConn ~ 5900 4700
NoConn ~ 3900 1850
NoConn ~ 3900 1950
NoConn ~ 3900 1450
NoConn ~ 5500 1800
$Comp
L MCP23017 U6
U 1 1 5ADF4736
P 5600 8000
F 0 "U6" H 5500 9025 50  0000 R CNN
F 1 "MCP23017 (3)" H 5500 8950 50  0000 R CNN
F 2 "" H 5650 7050 50  0001 L CNN
F 3 "" H 5850 9000 50  0001 C CNN
	1    5600 8000
	1    0    0    -1  
$EndComp
$Comp
L GND #PWR069
U 1 1 5ADF473C
P 7150 8050
F 0 "#PWR069" H 7150 7800 50  0001 C CNN
F 1 "GND" H 7150 7900 50  0000 C CNN
F 2 "" H 7150 8050 50  0001 C CNN
F 3 "" H 7150 8050 50  0001 C CNN
	1    7150 8050
	1    0    0    -1  
$EndComp
Text GLabel 6100 8300 2    39   Input ~ 0
RPi_Pin5_SCL1
Text GLabel 6100 8400 2    39   Input ~ 0
RPi_Pin3_SDA1
$Comp
L +3V3 #PWR070
U 1 1 5ADF4744
P 5600 7000
F 0 "#PWR070" H 5600 6850 50  0001 C CNN
F 1 "+3V3" H 5600 7140 50  0000 C CNN
F 2 "" H 5600 7000 50  0001 C CNN
F 3 "" H 5600 7000 50  0001 C CNN
	1    5600 7000
	1    0    0    -1  
$EndComp
$Comp
L Conn_01x10_Female J36
U 1 1 5ADF476A
P 7900 7650
F 0 "J36" H 7900 8150 50  0000 C CNN
F 1 "MCP23017 (3) Bank 3" H 7900 7050 50  0000 C CNN
F 2 "Socket_Strips:Socket_Strip_Straight_1x10_Pitch2.54mm" H 7900 7650 50  0001 C CNN
F 3 "" H 7900 7650 50  0001 C CNN
	1    7900 7650
	1    0    0    -1  
$EndComp
Text GLabel 7700 7950 0    39   Input ~ 0
RPi_Pin5_SCL1
Text GLabel 7700 7850 0    39   Input ~ 0
RPi_Pin3_SDA1
$Comp
L GND #PWR071
U 1 1 5ADF4772
P 950 7350
F 0 "#PWR071" H 950 7100 50  0001 C CNN
F 1 "GND" H 950 7200 50  0000 C CNN
F 2 "" H 950 7350 50  0001 C CNN
F 3 "" H 950 7350 50  0001 C CNN
	1    950  7350
	1    0    0    -1  
$EndComp
$Comp
L +3V3 #PWR072
U 1 1 5ADF4778
P 7350 8350
F 0 "#PWR072" H 7350 8200 50  0001 C CNN
F 1 "+3V3" H 7350 8490 50  0000 C CNN
F 2 "" H 7350 8350 50  0001 C CNN
F 3 "" H 7350 8350 50  0001 C CNN
	1    7350 8350
	1    0    0    -1  
$EndComp
$Comp
L Conn_01x10_Female J31
U 1 1 5ADF4782
P 3550 8450
F 0 "J31" H 3550 8950 50  0000 C CNN
F 1 "MCP23017 (3) Bank 2" H 3550 7850 50  0000 C CNN
F 2 "Socket_Strips:Socket_Strip_Straight_1x10_Pitch2.54mm" H 3550 8450 50  0001 C CNN
F 3 "" H 3550 8450 50  0001 C CNN
	1    3550 8450
	1    0    0    -1  
$EndComp
$Comp
L Conn_01x10_Female J30
U 1 1 5ADF4788
P 3550 7250
F 0 "J30" H 3550 7750 50  0000 C CNN
F 1 "MCP23017 (3) Bank 1" H 3550 6650 50  0000 C CNN
F 2 "Socket_Strips:Socket_Strip_Straight_1x10_Pitch2.54mm" H 3550 7250 50  0001 C CNN
F 3 "" H 3550 7250 50  0001 C CNN
	1    3550 7250
	1    0    0    -1  
$EndComp
$Comp
L GND #PWR073
U 1 1 5ADF478E
P 3000 6650
F 0 "#PWR073" H 3000 6400 50  0001 C CNN
F 1 "GND" H 3000 6500 50  0000 C CNN
F 2 "" H 3000 6650 50  0001 C CNN
F 3 "" H 3000 6650 50  0001 C CNN
	1    3000 6650
	1    0    0    -1  
$EndComp
$Comp
L +3V3 #PWR074
U 1 1 5ADF4797
P 3000 8050
F 0 "#PWR074" H 3000 7900 50  0001 C CNN
F 1 "+3V3" H 3000 8190 50  0000 C CNN
F 2 "" H 3000 8050 50  0001 C CNN
F 3 "" H 3000 8050 50  0001 C CNN
	1    3000 8050
	1    0    0    -1  
$EndComp
NoConn ~ 6100 7600
NoConn ~ 6100 7700
NoConn ~ 3350 8150
NoConn ~ 3350 6950
NoConn ~ 7700 7750
NoConn ~ 7700 7650
$Comp
L GS3 J33
U 1 1 5ADF47A4
P 6450 6750
F 0 "J33" H 6500 6950 50  0000 C CNN
F 1 "A0" H 6500 6551 50  0000 C CNN
F 2 "Socket_Strips:Socket_Strip_Straight_1x03_Pitch2.54mm" V 6538 6676 50  0001 C CNN
F 3 "" H 6450 6750 50  0001 C CNN
	1    6450 6750
	1    0    0    -1  
$EndComp
$Comp
L GS3 J34
U 1 1 5ADF47AA
P 6900 6750
F 0 "J34" H 6950 6950 50  0000 C CNN
F 1 "A1" H 6950 6551 50  0000 C CNN
F 2 "Socket_Strips:Socket_Strip_Straight_1x03_Pitch2.54mm" V 6988 6676 50  0001 C CNN
F 3 "" H 6900 6750 50  0001 C CNN
	1    6900 6750
	1    0    0    -1  
$EndComp
$Comp
L GS3 J35
U 1 1 5ADF47B0
P 7350 6750
F 0 "J35" H 7400 6950 50  0000 C CNN
F 1 "A2" H 7400 6551 50  0000 C CNN
F 2 "Socket_Strips:Socket_Strip_Straight_1x03_Pitch2.54mm" V 7438 6676 50  0001 C CNN
F 3 "" H 7350 6750 50  0001 C CNN
	1    7350 6750
	1    0    0    -1  
$EndComp
$Comp
L GND #PWR075
U 1 1 5ADF47BC
P 6300 6850
F 0 "#PWR075" H 6300 6600 50  0001 C CNN
F 1 "GND" H 6300 6700 50  0000 C CNN
F 2 "" H 6300 6850 50  0001 C CNN
F 3 "" H 6300 6850 50  0001 C CNN
	1    6300 6850
	1    0    0    -1  
$EndComp
$Comp
L GND #PWR076
U 1 1 5ADF47C2
P 6750 6850
F 0 "#PWR076" H 6750 6600 50  0001 C CNN
F 1 "GND" H 6750 6700 50  0000 C CNN
F 2 "" H 6750 6850 50  0001 C CNN
F 3 "" H 6750 6850 50  0001 C CNN
	1    6750 6850
	1    0    0    -1  
$EndComp
$Comp
L GND #PWR077
U 1 1 5ADF47C8
P 7200 6850
F 0 "#PWR077" H 7200 6600 50  0001 C CNN
F 1 "GND" H 7200 6700 50  0000 C CNN
F 2 "" H 7200 6850 50  0001 C CNN
F 3 "" H 7200 6850 50  0001 C CNN
	1    7200 6850
	1    0    0    -1  
$EndComp
$Comp
L +3V3 #PWR078
U 1 1 5ADF47CE
P 6200 6550
F 0 "#PWR078" H 6200 6400 50  0001 C CNN
F 1 "+3V3" H 6200 6690 50  0000 C CNN
F 2 "" H 6200 6550 50  0001 C CNN
F 3 "" H 6200 6550 50  0001 C CNN
	1    6200 6550
	1    0    0    -1  
$EndComp
$Comp
L +3V3 #PWR079
U 1 1 5ADF47D4
P 6650 6550
F 0 "#PWR079" H 6650 6400 50  0001 C CNN
F 1 "+3V3" H 6650 6690 50  0000 C CNN
F 2 "" H 6650 6550 50  0001 C CNN
F 3 "" H 6650 6550 50  0001 C CNN
	1    6650 6550
	1    0    0    -1  
$EndComp
$Comp
L +3V3 #PWR080
U 1 1 5ADF47DA
P 7100 6550
F 0 "#PWR080" H 7100 6400 50  0001 C CNN
F 1 "+3V3" H 7100 6690 50  0000 C CNN
F 2 "" H 7100 6550 50  0001 C CNN
F 3 "" H 7100 6550 50  0001 C CNN
	1    7100 6550
	1    0    0    -1  
$EndComp
NoConn ~ 6100 7200
NoConn ~ 7700 7550
Text GLabel 5100 7200 0    39   Input ~ 0
Analog_in_Feuchte
Text GLabel 5100 7300 0    39   Input ~ 0
Analog_in_Temperature
Text GLabel 5100 7400 0    39   Input ~ 0
Analog_in_CO2
Text GLabel 5100 7500 0    39   Input ~ 0
AnalogIN_4
Text GLabel 3350 7350 0    39   Input ~ 0
Feuchte_from_RPI
Text GLabel 3350 7250 0    39   Input ~ 0
Temperature_from_RPI
Text GLabel 3350 7150 0    39   Input ~ 0
CO2_from_RPI
Text GLabel 3350 7050 0    39   Input ~ 0
AnalogIN_4_from_RPI
$Comp
L Conn_02x08_Odd_Even J28
U 1 1 5ADF9D50
P 1700 7850
F 0 "J28" H 1750 8250 50  0000 C CNN
F 1 "Future_use" H 1750 7350 50  0000 C CNN
F 2 "Pin_Headers:Pin_Header_Straight_2x08_Pitch2.54mm" H 1700 7850 50  0001 C CNN
F 3 "" H 1700 7850 50  0001 C CNN
	1    1700 7850
	1    0    0    -1  
$EndComp
$Comp
L GND #PWR081
U 1 1 5ADFA2AB
P 2450 7350
F 0 "#PWR081" H 2450 7100 50  0001 C CNN
F 1 "GND" H 2450 7200 50  0000 C CNN
F 2 "" H 2450 7350 50  0001 C CNN
F 3 "" H 2450 7350 50  0001 C CNN
	1    2450 7350
	1    0    0    -1  
$EndComp
$Comp
L +3V3 #PWR082
U 1 1 5ADFA5C4
P 1300 7650
F 0 "#PWR082" H 1300 7500 50  0001 C CNN
F 1 "+3V3" H 1300 7790 50  0000 C CNN
F 2 "" H 1300 7650 50  0001 C CNN
F 3 "" H 1300 7650 50  0001 C CNN
	1    1300 7650
	1    0    0    -1  
$EndComp
$Comp
L +5V #PWR083
U 1 1 5ADFA696
P 2150 7650
F 0 "#PWR083" H 2150 7500 50  0001 C CNN
F 1 "+5V" H 2150 7790 50  0000 C CNN
F 2 "" H 2150 7650 50  0001 C CNN
F 3 "" H 2150 7650 50  0001 C CNN
	1    2150 7650
	1    0    0    -1  
$EndComp
Text GLabel 3350 7450 0    39   Input ~ 0
GPIO_37
Text GLabel 3350 7550 0    39   Input ~ 0
GPIO_38
Text GLabel 3350 7650 0    39   Input ~ 0
GPIO_39
Text GLabel 3350 7750 0    39   Input ~ 0
GPIO_40
Text GLabel 3350 8950 0    39   Input ~ 0
GPIO_41
Text GLabel 3350 8850 0    39   Input ~ 0
GPIO_42
Text GLabel 3350 8250 0    39   Input ~ 0
GPIO_43
Text GLabel 3350 8350 0    39   Input ~ 0
GPIO_44
Text GLabel 3350 8450 0    39   Input ~ 0
GPIO_45
Text GLabel 3350 8550 0    39   Input ~ 0
GPIO_46
Text GLabel 3350 8650 0    39   Input ~ 0
GPIO_47
Text GLabel 3350 8750 0    39   Input ~ 0
GPIO_48
Text GLabel 2000 7750 2    39   Input ~ 0
GPIO_37
Text GLabel 2000 7850 2    39   Input ~ 0
GPIO_38
Text GLabel 2000 7950 2    39   Input ~ 0
GPIO_39
Text GLabel 2000 8050 2    39   Input ~ 0
GPIO_40
Text GLabel 2000 8150 2    39   Input ~ 0
GPIO_41
Text GLabel 2000 8250 2    39   Input ~ 0
GPIO_42
Text GLabel 1500 7750 0    39   Input ~ 0
GPIO_43
Text GLabel 1500 7850 0    39   Input ~ 0
GPIO_44
Text GLabel 1500 7950 0    39   Input ~ 0
GPIO_45
Text GLabel 1500 8050 0    39   Input ~ 0
GPIO_46
Text GLabel 1500 8150 0    39   Input ~ 0
GPIO_47
Text GLabel 1500 8250 0    39   Input ~ 0
GPIO_48
Text GLabel 5100 7600 0    39   Input ~ 0
GPIO_37
Text GLabel 5100 7700 0    39   Input ~ 0
GPIO_38
Text GLabel 5100 7800 0    39   Input ~ 0
GPIO_39
Text GLabel 5100 7900 0    39   Input ~ 0
GPIO_40
Text GLabel 5100 8100 0    39   Input ~ 0
GPIO_41
Text GLabel 5100 8200 0    39   Input ~ 0
GPIO_42
Text GLabel 5100 8300 0    39   Input ~ 0
GPIO_43
Text GLabel 5100 8400 0    39   Input ~ 0
GPIO_44
Text GLabel 5100 8500 0    39   Input ~ 0
GPIO_45
Text GLabel 5100 8600 0    39   Input ~ 0
GPIO_46
Text GLabel 5100 8700 0    39   Input ~ 0
GPIO_47
Text GLabel 5100 8800 0    39   Input ~ 0
GPIO_48
Text GLabel 5500 4600 0    39   Input ~ 0
MCP23017_2_A0
Text GLabel 4650 5850 2    39   Input ~ 0
MCP23017_2_A0
Text GLabel 5850 4500 0    39   Input ~ 0
MCP23017_2_A1
Text GLabel 5900 4150 2    39   Input ~ 0
MCP23017_2_A2
Text GLabel 4650 5950 2    39   Input ~ 0
MCP23017_2_A1
Text GLabel 4650 6050 2    39   Input ~ 0
MCP23017_2_A2
Text GLabel 5500 1200 2    39   Input ~ 0
MCP23017_1_A2
Text GLabel 4950 1600 2    39   Input ~ 0
MCP23017_1_A1
Text GLabel 4650 1700 2    39   Input ~ 0
MCP23017_1_A0
Text GLabel 3900 2850 2    39   Input ~ 0
MCP23017_1_A0
Text GLabel 3900 2950 2    39   Input ~ 0
MCP23017_1_A1
Text GLabel 3900 3050 2    39   Input ~ 0
MCP23017_1_A2
Text GLabel 7700 6900 2    39   Input ~ 0
MCP23017_3_A2
Text GLabel 7100 7350 2    39   Input ~ 0
MCP23017_3_A1
Text GLabel 6850 7450 2    39   Input ~ 0
MCP23017_3_A0
Text GLabel 6100 8600 2    39   Input ~ 0
MCP23017_3_A0
Text GLabel 6100 8700 2    39   Input ~ 0
MCP23017_3_A1
Text GLabel 6100 8800 2    39   Input ~ 0
MCP23017_3_A2
$Comp
L TXB0104D U5
U 1 1 5AE06069
P 3850 10150
F 0 "U5" H 3575 10805 50  0000 C CNN
F 1 "TXB0104D" H 4200 10800 50  0000 C CNN
F 2 "" H 3900 9300 50  0001 C CNN
F 3 "" H 3960 10245 50  0001 C CNN
	1    3850 10150
	1    0    0    -1  
$EndComp
$Comp
L +3V3 #PWR084
U 1 1 5AE06692
P 3750 9450
F 0 "#PWR084" H 3750 9300 50  0001 C CNN
F 1 "+3V3" H 3750 9590 50  0000 C CNN
F 2 "" H 3750 9450 50  0001 C CNN
F 3 "" H 3750 9450 50  0001 C CNN
	1    3750 9450
	1    0    0    -1  
$EndComp
$Comp
L +5V #PWR085
U 1 1 5AE06766
P 3950 9450
F 0 "#PWR085" H 3950 9300 50  0001 C CNN
F 1 "+5V" H 3950 9590 50  0000 C CNN
F 2 "" H 3950 9450 50  0001 C CNN
F 3 "" H 3950 9450 50  0001 C CNN
	1    3950 9450
	1    0    0    -1  
$EndComp
$Comp
L GND #PWR086
U 1 1 5AE069BA
P 3850 10850
F 0 "#PWR086" H 3850 10600 50  0001 C CNN
F 1 "GND" H 3850 10700 50  0000 C CNN
F 2 "" H 3850 10850 50  0001 C CNN
F 3 "" H 3850 10850 50  0001 C CNN
	1    3850 10850
	1    0    0    -1  
$EndComp
Text GLabel 4250 9850 2    39   Input ~ 0
Analog_in_Feuchte
Text GLabel 4250 10050 2    39   Input ~ 0
Analog_in_Temperature
Text GLabel 4250 10250 2    39   Input ~ 0
Analog_in_CO2
Text GLabel 4250 10450 2    39   Input ~ 0
AnalogIN_4
Text GLabel 3450 9850 0    39   Input ~ 0
Feuchte_from_RPI
NoConn ~ 3450 9650
Text GLabel 3450 10050 0    39   Input ~ 0
Temperature_from_RPI
Text GLabel 3450 10250 0    39   Input ~ 0
CO2_from_RPI
Text GLabel 3450 10450 0    39   Input ~ 0
AnalogIN_4_from_RPI
$Comp
L Conn_01x06_Female J29
U 1 1 5AE08EA9
P 2200 10100
F 0 "J29" H 2200 10400 50  0000 C CNN
F 1 "Level Converter - Bank 1" H 2200 9700 50  0000 C CNN
F 2 "Socket_Strips:Socket_Strip_Straight_1x06_Pitch2.54mm" H 2200 10100 50  0001 C CNN
F 3 "" H 2200 10100 50  0001 C CNN
	1    2200 10100
	1    0    0    -1  
$EndComp
Text GLabel 2000 9900 0    39   Input ~ 0
Feuchte_from_RPI
Text GLabel 2000 10000 0    39   Input ~ 0
Temperature_from_RPI
Text GLabel 2000 10300 0    39   Input ~ 0
CO2_from_RPI
Text GLabel 2000 10400 0    39   Input ~ 0
AnalogIN_4_from_RPI
$Comp
L GND #PWR087
U 1 1 5AE0960D
P 1150 10200
F 0 "#PWR087" H 1150 9950 50  0001 C CNN
F 1 "GND" H 1150 10050 50  0000 C CNN
F 2 "" H 1150 10200 50  0001 C CNN
F 3 "" H 1150 10200 50  0001 C CNN
	1    1150 10200
	1    0    0    -1  
$EndComp
$Comp
L +3V3 #PWR088
U 1 1 5AE096E3
P 1150 10100
F 0 "#PWR088" H 1150 9950 50  0001 C CNN
F 1 "+3V3" H 1150 10240 50  0000 C CNN
F 2 "" H 1150 10100 50  0001 C CNN
F 3 "" H 1150 10100 50  0001 C CNN
	1    1150 10100
	1    0    0    -1  
$EndComp
$Comp
L Conn_01x06_Female J32
U 1 1 5AE09DD8
P 5400 10100
F 0 "J32" H 5400 10400 50  0000 C CNN
F 1 "Level Converter Bank 2" H 5400 9700 50  0000 C CNN
F 2 "Socket_Strips:Socket_Strip_Straight_1x06_Pitch2.54mm" H 5400 10100 50  0001 C CNN
F 3 "" H 5400 10100 50  0001 C CNN
	1    5400 10100
	-1   0    0    -1  
$EndComp
Text GLabel 5600 9900 2    39   Input ~ 0
Analog_in_Feuchte
Text GLabel 5600 10000 2    39   Input ~ 0
Analog_in_Temperature
Text GLabel 5600 10300 2    39   Input ~ 0
Analog_in_CO2
Text GLabel 5600 10400 2    39   Input ~ 0
AnalogIN_4
$Comp
L GND #PWR089
U 1 1 5AE0AE01
P 6450 10200
F 0 "#PWR089" H 6450 9950 50  0001 C CNN
F 1 "GND" H 6450 10050 50  0000 C CNN
F 2 "" H 6450 10200 50  0001 C CNN
F 3 "" H 6450 10200 50  0001 C CNN
	1    6450 10200
	1    0    0    -1  
$EndComp
$Comp
L +5V #PWR090
U 1 1 5AE0AF32
P 6450 10100
F 0 "#PWR090" H 6450 9950 50  0001 C CNN
F 1 "+5V" H 6450 10240 50  0000 C CNN
F 2 "" H 6450 10100 50  0001 C CNN
F 3 "" H 6450 10100 50  0001 C CNN
	1    6450 10100
	1    0    0    -1  
$EndComp
Wire Wire Line
	10350 7550 10450 7550
Wire Wire Line
	10400 7550 10400 7750
Connection ~ 10400 7550
Wire Wire Line
	15100 1400 15200 1400
Wire Wire Line
	15150 1400 15150 1600
Connection ~ 15150 1400
Wire Wire Line
	10750 7550 10850 7550
Wire Wire Line
	15500 1400 15600 1400
Wire Wire Line
	15100 1850 15200 1850
Wire Wire Line
	15150 1850 15150 2050
Connection ~ 15150 1850
Wire Wire Line
	15500 1850 15600 1850
Wire Wire Line
	15100 2250 15200 2250
Wire Wire Line
	15150 2250 15150 2450
Connection ~ 15150 2250
Wire Wire Line
	15500 2250 15600 2250
Wire Wire Line
	15100 2700 15200 2700
Wire Wire Line
	15150 2700 15150 2900
Connection ~ 15150 2700
Wire Wire Line
	15500 2700 15600 2700
Wire Wire Line
	15100 3100 15200 3100
Wire Wire Line
	15150 3100 15150 3300
Connection ~ 15150 3100
Wire Wire Line
	15500 3100 15600 3100
Wire Wire Line
	15100 4300 15200 4300
Wire Wire Line
	15150 4300 15150 4500
Connection ~ 15150 4300
Wire Wire Line
	15500 4300 15600 4300
Wire Wire Line
	15100 4700 15200 4700
Wire Wire Line
	15150 4700 15150 4900
Connection ~ 15150 4700
Wire Wire Line
	15500 4700 15600 4700
Wire Wire Line
	15100 5100 15200 5100
Wire Wire Line
	15150 5100 15150 5300
Connection ~ 15150 5100
Wire Wire Line
	15500 5100 15600 5100
Wire Wire Line
	15100 5500 15200 5500
Wire Wire Line
	15150 5500 15150 5700
Connection ~ 15150 5500
Wire Wire Line
	15500 5500 15600 5500
Wire Wire Line
	15100 5850 15200 5850
Wire Wire Line
	15150 5850 15150 6050
Connection ~ 15150 5850
Wire Wire Line
	15500 5850 15600 5850
Wire Wire Line
	15100 6250 15200 6250
Wire Wire Line
	15150 6250 15150 6450
Connection ~ 15150 6250
Wire Wire Line
	15500 6250 15600 6250
Wire Wire Line
	10350 8000 10450 8000
Wire Wire Line
	10400 8000 10400 8200
Connection ~ 10400 8000
Wire Wire Line
	10750 8000 10850 8000
Wire Wire Line
	10350 8450 10450 8450
Wire Wire Line
	10400 8450 10400 8650
Connection ~ 10400 8450
Wire Wire Line
	10750 8450 10850 8450
Wire Wire Line
	10350 8900 10450 8900
Wire Wire Line
	10400 8900 10400 9100
Connection ~ 10400 8900
Wire Wire Line
	10750 8900 10850 8900
Wire Wire Line
	10350 9350 10450 9350
Wire Wire Line
	10400 9350 10400 9550
Connection ~ 10400 9350
Wire Wire Line
	10750 9350 10850 9350
Wire Wire Line
	10350 9800 10450 9800
Wire Wire Line
	10400 9800 10400 10000
Connection ~ 10400 9800
Wire Wire Line
	10750 9800 10850 9800
Wire Wire Line
	10350 10250 10450 10250
Wire Wire Line
	10400 10250 10400 10450
Connection ~ 10400 10250
Wire Wire Line
	10750 10250 10850 10250
Wire Wire Line
	10350 10700 10450 10700
Wire Wire Line
	10400 10700 10400 10900
Connection ~ 10400 10700
Wire Wire Line
	10750 10700 10850 10700
Wire Wire Line
	15100 950  15200 950 
Wire Wire Line
	15150 950  15150 1150
Connection ~ 15150 950 
Wire Wire Line
	15500 950  15600 950 
Wire Wire Line
	15100 3500 15200 3500
Wire Wire Line
	15150 3500 15150 3700
Connection ~ 15150 3500
Wire Wire Line
	15500 3500 15600 3500
Wire Wire Line
	15100 3900 15200 3900
Wire Wire Line
	15150 3900 15150 4100
Connection ~ 15150 3900
Wire Wire Line
	15500 3900 15600 3900
Wire Wire Line
	15100 6650 15200 6650
Wire Wire Line
	15150 6650 15150 6850
Connection ~ 15150 6650
Wire Wire Line
	15500 6650 15600 6650
Wire Wire Line
	15100 7050 15200 7050
Wire Wire Line
	15150 7050 15150 7250
Connection ~ 15150 7050
Wire Wire Line
	15500 7050 15600 7050
Wire Wire Line
	8250 4250 9050 4250
Wire Wire Line
	8250 3650 8250 4750
Wire Wire Line
	8250 4550 9050 4550
Connection ~ 8250 4550
Wire Wire Line
	9050 3950 8250 3950
Connection ~ 8250 4250
Wire Wire Line
	9050 3650 8250 3650
Connection ~ 8250 3950
Wire Wire Line
	8000 2350 8800 2350
Wire Wire Line
	8000 1450 8000 2600
Wire Wire Line
	8800 2050 8000 2050
Connection ~ 8000 2350
Wire Wire Line
	8800 1750 8000 1750
Connection ~ 8000 2050
Wire Wire Line
	8800 1450 8000 1450
Connection ~ 8000 1750
Wire Wire Line
	13800 7800 13550 7800
Wire Wire Line
	13550 8100 13800 8100
Wire Wire Line
	13550 8400 13800 8400
Wire Wire Line
	13550 8700 13800 8700
Wire Wire Line
	13550 9000 13800 9000
Wire Wire Line
	13550 9250 13800 9250
Wire Wire Line
	13550 9500 13800 9500
Wire Wire Line
	13550 9750 13800 9750
Wire Wire Line
	14100 7800 14350 7800
Wire Wire Line
	14100 8100 14350 8100
Wire Wire Line
	14350 8400 14100 8400
Wire Wire Line
	14100 8700 14350 8700
Wire Wire Line
	14100 9000 14350 9000
Wire Wire Line
	14100 9250 14350 9250
Wire Wire Line
	14100 9500 14350 9500
Wire Wire Line
	14100 9750 14350 9750
Wire Wire Line
	5900 5200 5350 5200
Wire Wire Line
	5900 5300 5700 5300
Wire Wire Line
	5700 5300 5700 5500
Wire Wire Line
	5700 5500 5550 5500
Wire Wire Line
	5500 2300 4950 2300
Wire Wire Line
	5500 2400 5300 2400
Wire Wire Line
	5300 2400 5300 2600
Wire Wire Line
	5300 2600 5150 2600
Wire Wire Line
	2750 4250 2600 4250
Wire Wire Line
	2600 4250 2600 4050
Wire Wire Line
	2600 4050 2400 4050
Wire Wire Line
	2750 5450 2400 5450
Wire Wire Line
	1450 2400 1000 2400
Wire Wire Line
	1450 1200 1250 1200
Wire Wire Line
	1250 1200 1250 950 
Wire Wire Line
	1250 950  1050 950 
Wire Wire Line
	11200 1950 11350 1950
Wire Wire Line
	11350 2050 11000 2050
Wire Wire Line
	11000 2050 11000 1900
Wire Wire Line
	11000 1900 10750 1900
Wire Wire Line
	11400 3850 11550 3850
Wire Wire Line
	11550 3950 11200 3950
Wire Wire Line
	11200 3950 11200 3800
Wire Wire Line
	11200 3800 10950 3800
Wire Wire Line
	6250 2050 7100 2050
Wire Wire Line
	6250 1550 6250 2600
Wire Wire Line
	7100 2250 6250 2250
Connection ~ 6250 2250
Wire Wire Line
	7100 1750 6250 1750
Connection ~ 6250 2050
Wire Wire Line
	7100 1550 6250 1550
Connection ~ 6250 1750
Wire Wire Line
	7550 3750 6650 3750
Wire Wire Line
	6650 3750 6650 4700
Wire Wire Line
	7550 3950 6650 3950
Connection ~ 6650 3950
Wire Wire Line
	7550 4250 6650 4250
Connection ~ 6650 4250
Wire Wire Line
	7550 4450 6650 4450
Connection ~ 6650 4450
Wire Wire Line
	5900 4600 4800 4600
Wire Wire Line
	4800 4600 4800 3900
Wire Wire Line
	5900 4500 5250 4500
Wire Wire Line
	5250 4500 5250 3900
Wire Wire Line
	5700 3900 5900 3900
Wire Wire Line
	5900 3900 5900 4400
Wire Wire Line
	5500 1500 5500 1000
Wire Wire Line
	5500 1000 5300 1000
Wire Wire Line
	5500 1600 4850 1600
Wire Wire Line
	4850 1600 4850 1000
Wire Wire Line
	5500 1700 4400 1700
Wire Wire Line
	4400 1700 4400 1000
Wire Wire Line
	11350 2450 11150 2450
Wire Wire Line
	11150 2450 11150 2900
Wire Wire Line
	11550 4350 11350 4350
Wire Wire Line
	11350 4350 11350 4750
Wire Wire Line
	5000 900  4900 900 
Wire Wire Line
	4900 900  4900 800 
Wire Wire Line
	4550 900  4450 900 
Wire Wire Line
	4450 900  4450 800 
Wire Wire Line
	4100 900  4000 900 
Wire Wire Line
	4000 900  4000 800 
Wire Wire Line
	5400 3800 5300 3800
Wire Wire Line
	5300 3800 5300 3700
Wire Wire Line
	4950 3800 4850 3800
Wire Wire Line
	4850 3800 4850 3700
Wire Wire Line
	4500 3800 4400 3800
Wire Wire Line
	4400 3800 4400 3700
Wire Wire Line
	10500 4650 10400 4650
Wire Wire Line
	10400 4650 10400 4550
Wire Wire Line
	11050 4650 10950 4650
Wire Wire Line
	10950 4650 10950 4550
Wire Wire Line
	11550 4250 10800 4250
Wire Wire Line
	10800 4250 10800 4750
Wire Wire Line
	10850 2800 10750 2800
Wire Wire Line
	10750 2800 10750 2700
Wire Wire Line
	10300 2800 10200 2800
Wire Wire Line
	10200 2800 10200 2700
Wire Wire Line
	10600 2900 10600 2350
Wire Wire Line
	10600 2350 11350 2350
Wire Wire Line
	7700 8050 7150 8050
Wire Wire Line
	7700 8150 7500 8150
Wire Wire Line
	7500 8150 7500 8350
Wire Wire Line
	7500 8350 7350 8350
Wire Wire Line
	3350 6850 3200 6850
Wire Wire Line
	3200 6850 3200 6650
Wire Wire Line
	3200 6650 3000 6650
Wire Wire Line
	3350 8050 3000 8050
Wire Wire Line
	7700 7450 6600 7450
Wire Wire Line
	6600 7450 6600 6750
Wire Wire Line
	7700 7350 7050 7350
Wire Wire Line
	7050 7350 7050 6750
Wire Wire Line
	7500 6750 7700 6750
Wire Wire Line
	7700 6750 7700 7250
Wire Wire Line
	7200 6650 7100 6650
Wire Wire Line
	7100 6650 7100 6550
Wire Wire Line
	6750 6650 6650 6650
Wire Wire Line
	6650 6650 6650 6550
Wire Wire Line
	6300 6650 6200 6650
Wire Wire Line
	6200 6650 6200 6550
Wire Wire Line
	2000 7550 2000 7350
Wire Wire Line
	2000 7350 2450 7350
Wire Wire Line
	1500 7550 1500 7350
Wire Wire Line
	1500 7350 950  7350
Wire Wire Line
	1500 7650 1300 7650
Wire Wire Line
	2000 7650 2150 7650
Wire Wire Line
	5600 10100 6450 10100
Wire Wire Line
	5600 10200 6450 10200
Wire Wire Line
	1150 10100 2000 10100
Wire Wire Line
	1150 10200 2000 10200
Wire Wire Line
	9050 7150 9300 7150
Wire Wire Line
	9100 6450 9300 6450
Wire Wire Line
	9800 6850 10000 6850
Wire Wire Line
	9800 6650 10000 6650
Wire Wire Line
	9800 6150 10000 6150
Wire Wire Line
	9800 5450 10000 5450
Wire Wire Line
	9800 5850 10000 5850
Wire Wire Line
	9100 6050 9300 6050
Wire Wire Line
	9100 5650 9300 5650
$Comp
L +3V3 #PWR091
U 1 1 5ADA02C3
P 9100 6050
F 0 "#PWR091" H 9100 5900 50  0001 C CNN
F 1 "+3V3" H 9100 6190 50  0000 C CNN
F 2 "" H 9100 6050 50  0001 C CNN
F 3 "" H 9100 6050 50  0001 C CNN
	1    9100 6050
	1    0    0    -1  
$EndComp
$Comp
L GND #PWR092
U 1 1 5AD9FF6F
P 9050 7150
F 0 "#PWR092" H 9050 6900 50  0001 C CNN
F 1 "GND" H 9050 7000 50  0000 C CNN
F 2 "" H 9050 7150 50  0001 C CNN
F 3 "" H 9050 7150 50  0001 C CNN
	1    9050 7150
	1    0    0    -1  
$EndComp
$Comp
L GND #PWR093
U 1 1 5AD9FEDB
P 10000 6850
F 0 "#PWR093" H 10000 6600 50  0001 C CNN
F 1 "GND" H 10000 6700 50  0000 C CNN
F 2 "" H 10000 6850 50  0001 C CNN
F 3 "" H 10000 6850 50  0001 C CNN
	1    10000 6850
	1    0    0    -1  
$EndComp
$Comp
L GND #PWR094
U 1 1 5AD9FE07
P 10000 6650
F 0 "#PWR094" H 10000 6400 50  0001 C CNN
F 1 "GND" H 10000 6500 50  0000 C CNN
F 2 "" H 10000 6650 50  0001 C CNN
F 3 "" H 10000 6650 50  0001 C CNN
	1    10000 6650
	1    0    0    -1  
$EndComp
$Comp
L GND #PWR095
U 1 1 5AD9FCB3
P 9100 6450
F 0 "#PWR095" H 9100 6200 50  0001 C CNN
F 1 "GND" H 9100 6300 50  0000 C CNN
F 2 "" H 9100 6450 50  0001 C CNN
F 3 "" H 9100 6450 50  0001 C CNN
	1    9100 6450
	1    0    0    -1  
$EndComp
$Comp
L GND #PWR096
U 1 1 5AD9FC1F
P 10000 6150
F 0 "#PWR096" H 10000 5900 50  0001 C CNN
F 1 "GND" H 10000 6000 50  0000 C CNN
F 2 "" H 10000 6150 50  0001 C CNN
F 3 "" H 10000 6150 50  0001 C CNN
	1    10000 6150
	1    0    0    -1  
$EndComp
$Comp
L GND #PWR097
U 1 1 5AD9FB8B
P 10000 5850
F 0 "#PWR097" H 10000 5600 50  0001 C CNN
F 1 "GND" H 10000 5700 50  0000 C CNN
F 2 "" H 10000 5850 50  0001 C CNN
F 3 "" H 10000 5850 50  0001 C CNN
	1    10000 5850
	1    0    0    -1  
$EndComp
$Comp
L GND #PWR098
U 1 1 5AD9FAF7
P 9100 5650
F 0 "#PWR098" H 9100 5400 50  0001 C CNN
F 1 "GND" H 9100 5500 50  0000 C CNN
F 2 "" H 9100 5650 50  0001 C CNN
F 3 "" H 9100 5650 50  0001 C CNN
	1    9100 5650
	1    0    0    -1  
$EndComp
$Comp
L GND #PWR099
U 1 1 5AD9F723
P 10000 5450
F 0 "#PWR099" H 10000 5200 50  0001 C CNN
F 1 "GND" H 10000 5300 50  0000 C CNN
F 2 "" H 10000 5450 50  0001 C CNN
F 3 "" H 10000 5450 50  0001 C CNN
	1    10000 5450
	1    0    0    -1  
$EndComp
Wire Wire Line
	10150 5350 9800 5350
Wire Wire Line
	9900 5250 9800 5250
$Comp
L +5V #PWR0100
U 1 1 5AD9F388
P 10150 5350
F 0 "#PWR0100" H 10150 5200 50  0001 C CNN
F 1 "+5V" H 10150 5490 50  0000 C CNN
F 2 "" H 10150 5350 50  0001 C CNN
F 3 "" H 10150 5350 50  0001 C CNN
	1    10150 5350
	1    0    0    -1  
$EndComp
$Comp
L +5V #PWR0101
U 1 1 5AD9F2F4
P 9900 5250
F 0 "#PWR0101" H 9900 5100 50  0001 C CNN
F 1 "+5V" H 9900 5390 50  0000 C CNN
F 2 "" H 9900 5250 50  0001 C CNN
F 3 "" H 9900 5250 50  0001 C CNN
	1    9900 5250
	1    0    0    -1  
$EndComp
Wire Wire Line
	9300 5250 9050 5250
$Comp
L +3V3 #PWR0102
U 1 1 5AD9EF00
P 9050 5250
F 0 "#PWR0102" H 9050 5100 50  0001 C CNN
F 1 "+3V3" H 9050 5390 50  0000 C CNN
F 2 "" H 9050 5250 50  0001 C CNN
F 3 "" H 9050 5250 50  0001 C CNN
	1    9050 5250
	1    0    0    -1  
$EndComp
Text GLabel 9300 5450 0    39   Input ~ 0
RPi_Pin5_SCL1
Text GLabel 9300 5350 0    39   Input ~ 0
RPi_Pin3_SDA1
$Comp
L Conn_02x20_Odd_Even J1
U 1 1 5AD9CDD3
P 9500 6150
F 0 "J1" H 9550 7150 50  0000 C CNN
F 1 "RPI_Connector" H 9550 5050 50  0000 C CNN
F 2 "Socket_Strips:Socket_Strip_Straight_2x20_Pitch2.54mm" H 9500 6150 50  0001 C CNN
F 3 "" H 9500 6150 50  0001 C CNN
	1    9500 6150
	1    0    0    -1  
$EndComp
$Comp
L Conn_01x10_Male J37
U 1 1 5AE1453D
P 900 4700
F 0 "J37" H 900 5200 50  0000 C CNN
F 1 "Connector zu Relay 1" H 900 4100 50  0000 C CNN
F 2 "Socket_Strips:Socket_Strip_Straight_1x10_Pitch2.54mm" H 900 4700 50  0001 C CNN
F 3 "" H 900 4700 50  0001 C CNN
	1    900  4700
	1    0    0    -1  
$EndComp
$Comp
L Conn_01x10_Male J38
U 1 1 5AE146BB
P 900 5950
F 0 "J38" H 900 6450 50  0000 C CNN
F 1 "Connector zu Relay 2" H 900 5350 50  0000 C CNN
F 2 "Socket_Strips:Socket_Strip_Straight_1x10_Pitch2.54mm" H 900 5950 50  0001 C CNN
F 3 "" H 900 5950 50  0001 C CNN
	1    900  5950
	1    0    0    -1  
$EndComp
Text GLabel 1100 5650 2    39   Input ~ 0
Relaisboard2_IN1
Text GLabel 1100 5750 2    39   Input ~ 0
Relaisboard2_IN2
Text GLabel 1100 5850 2    39   Input ~ 0
Relaisboard2_IN3
Text GLabel 1100 5950 2    39   Input ~ 0
Relaisboard2_IN4
Text GLabel 1100 6050 2    39   Input ~ 0
Relaisboard2_IN5
Text GLabel 1100 6150 2    39   Input ~ 0
Relaisboard2_IN6
Text GLabel 1100 6250 2    39   Input ~ 0
Relaisboard2_IN7
Text GLabel 1100 6350 2    39   Input ~ 0
Relaisboard2_IN8
Text GLabel 1100 4400 2    39   Input ~ 0
Relaisboard1_IN1
Text GLabel 1100 4500 2    39   Input ~ 0
Relaisboard1_IN2
Text GLabel 1100 4600 2    39   Input ~ 0
Relaisboard1_IN3
Text GLabel 1100 4700 2    39   Input ~ 0
Relaisboard1_IN4
Text GLabel 1100 4800 2    39   Input ~ 0
Relaisboard1_IN5
Text GLabel 1100 4900 2    39   Input ~ 0
Relaisboard1_IN6
Text GLabel 1100 5000 2    39   Input ~ 0
Relaisboard1_IN7
Text GLabel 1100 5100 2    39   Input ~ 0
Relaisboard1_IN8
$Comp
L GND #PWR0103
U 1 1 5AE15BB7
P 1800 5550
F 0 "#PWR0103" H 1800 5300 50  0001 C CNN
F 1 "GND" H 1800 5400 50  0000 C CNN
F 2 "" H 1800 5550 50  0001 C CNN
F 3 "" H 1800 5550 50  0001 C CNN
	1    1800 5550
	1    0    0    -1  
$EndComp
$Comp
L GND #PWR0104
U 1 1 5AE15CF5
P 1800 4300
F 0 "#PWR0104" H 1800 4050 50  0001 C CNN
F 1 "GND" H 1800 4150 50  0000 C CNN
F 2 "" H 1800 4300 50  0001 C CNN
F 3 "" H 1800 4300 50  0001 C CNN
	1    1800 4300
	1    0    0    -1  
$EndComp
Wire Wire Line
	1100 4300 1800 4300
Wire Wire Line
	1100 5550 1800 5550
$Comp
L +5V #PWR0105
U 1 1 5AE17CB1
P 1800 6450
F 0 "#PWR0105" H 1800 6300 50  0001 C CNN
F 1 "+5V" H 1800 6590 50  0000 C CNN
F 2 "" H 1800 6450 50  0001 C CNN
F 3 "" H 1800 6450 50  0001 C CNN
	1    1800 6450
	1    0    0    -1  
$EndComp
$Comp
L +5V #PWR0106
U 1 1 5AE17FE3
P 1800 5200
F 0 "#PWR0106" H 1800 5050 50  0001 C CNN
F 1 "+5V" H 1800 5340 50  0000 C CNN
F 2 "" H 1800 5200 50  0001 C CNN
F 3 "" H 1800 5200 50  0001 C CNN
	1    1800 5200
	1    0    0    -1  
$EndComp
Wire Wire Line
	1800 5200 1100 5200
Wire Wire Line
	1800 6450 1100 6450
Text GLabel 11400 4250 0    39   Input ~ 0
MCP3424_2_AD0
Text GLabel 10250 3850 2    39   Input ~ 0
MCP3424_2_AD0
Text GLabel 11350 4600 2    39   Input ~ 0
MCP3424_2_AD1
Text GLabel 10250 3950 2    39   Input ~ 0
MCP3424_2_AD1
Text GLabel 10000 1650 2    39   Input ~ 0
MCP3424_1_AD0
Text GLabel 10000 1750 2    39   Input ~ 0
MCP3424_1_AD1
Text GLabel 11200 2350 0    39   Input ~ 0
MCP3424_1_AD0
Text GLabel 11150 2700 2    39   Input ~ 0
MCP3424_1_AD1
$Comp
L GND #PWR?
U 1 1 5AE391BD
P 12350 3600
F 0 "#PWR?" H 12350 3350 50  0001 C CNN
F 1 "GND" H 12350 3450 50  0000 C CNN
F 2 "" H 12350 3600 50  0001 C CNN
F 3 "" H 12350 3600 50  0001 C CNN
	1    12350 3600
	1    0    0    -1  
$EndComp
$Comp
L GND #PWR?
U 1 1 5AE39A67
P 12600 3700
F 0 "#PWR?" H 12600 3450 50  0001 C CNN
F 1 "GND" H 12600 3550 50  0000 C CNN
F 2 "" H 12600 3700 50  0001 C CNN
F 3 "" H 12600 3700 50  0001 C CNN
	1    12600 3700
	1    0    0    -1  
$EndComp
Wire Wire Line
	13050 3600 12350 3600
Wire Wire Line
	13050 3700 12600 3700
$EndSCHEMATC
